<?xml version="1.0" encoding="UTF-8"?>
<svg xmlns="http://www.w3.org/2000/svg" xmlns:xlink="http://www.w3.org/1999/xlink" width="170.477pt" height="170.477pt" viewBox="0 0 170.477 170.477" version="1.1">
<defs>
<clipPath id="clip1">
  <path d="M 0 0 L 170.476562 0 L 170.476562 170.476562 L 0 170.476562 Z M 0 0 "/>
</clipPath>
<clipPath id="clip2">
  <path d="M 64 64 L 106 64 L 106 106 L 64 106 Z M 64 64 "/>
</clipPath>
<clipPath id="clip3">
  <path d="M 64.828125 105.648438 L 85.238281 64.828125 L 105.648438 105.648438 L 64.828125 105.648438 "/>
</clipPath>
<clipPath id="clip4">
  <rect x="0" y="0" width="3" height="3"/>
</clipPath>
<g id="surface5" clip-path="url(#clip4)">
<path style=" stroke:none;fill-rule:nonzero;fill:rgb(69.999695%,69.999695%,69.999695%);fill-opacity:1;" d="M 0 0 L 1.5 0 L 1.5 3 L 0 3 Z M 0 0 "/>
</g>
<pattern id="pattern0" patternUnits="userSpaceOnUse" width="3" height="3" patternTransform="matrix(0.944947,0,0,-0.944947,0,170.477)">
<use xlink:href="#surface5"/>
</pattern>
<clipPath id="clip5">
  <path d="M 112 17 L 154 17 L 154 59 L 112 59 Z M 112 17 "/>
</clipPath>
<clipPath id="clip6">
  <path d="M 112.453125 58.027344 L 132.859375 17.207031 L 153.269531 58.027344 L 112.453125 58.027344 "/>
</clipPath>
<clipPath id="clip7">
  <rect x="0" y="0" width="3" height="3"/>
</clipPath>
<g id="surface8" clip-path="url(#clip7)">
<path style=" stroke:none;fill-rule:nonzero;fill:rgb(69.999695%,69.999695%,69.999695%);fill-opacity:1;" d="M 0 0 L 1.5 0 L 1.5 3 L 0 3 Z M 0 0 "/>
</g>
<pattern id="pattern1" patternUnits="userSpaceOnUse" width="3" height="3" patternTransform="matrix(0.944947,0,0,-0.944947,0,170.477)">
<use xlink:href="#surface8"/>
</pattern>
<clipPath id="clip8">
  <path d="M 89 0 L 170.476562 0 L 170.476562 81 L 89 81 Z M 89 0 "/>
</clipPath>
<clipPath id="clip9">
  <path d="M 17 112 L 59 112 L 59 154 L 17 154 Z M 17 112 "/>
</clipPath>
<clipPath id="clip10">
  <path d="M 17.207031 153.269531 L 37.617188 112.449219 L 58.027344 153.269531 L 17.207031 153.269531 "/>
</clipPath>
<clipPath id="clip11">
  <rect x="0" y="0" width="3" height="3"/>
</clipPath>
<g id="surface11" clip-path="url(#clip11)">
<path style=" stroke:none;fill-rule:nonzero;fill:rgb(69.999695%,69.999695%,69.999695%);fill-opacity:1;" d="M 0 0 L 1.5 0 L 1.5 3 L 0 3 Z M 0 0 "/>
</g>
<pattern id="pattern2" patternUnits="userSpaceOnUse" width="3" height="3" patternTransform="matrix(0.944947,0,0,-0.944947,0,170.477)">
<use xlink:href="#surface11"/>
</pattern>
<clipPath id="clip12">
  <path d="M 0 89 L 81 89 L 81 170.476562 L 0 170.476562 Z M 0 89 "/>
</clipPath>
<clipPath id="clip13">
  <path d="M 81 34 L 123 34 L 123 76 L 81 76 Z M 81 34 "/>
</clipPath>
<clipPath id="clip14">
  <path d="M 81.835938 75.035156 L 102.246094 34.214844 L 122.65625 75.035156 L 81.835938 75.035156 "/>
</clipPath>
<clipPath id="clip15">
  <rect x="0" y="0" width="3" height="3"/>
</clipPath>
<g id="surface14" clip-path="url(#clip15)">
<path style=" stroke:none;fill-rule:nonzero;fill:rgb(69.999695%,69.999695%,69.999695%);fill-opacity:1;" d="M 0 0 L 1.5 0 L 1.5 3 L 0 3 Z M 0 0 "/>
</g>
<pattern id="pattern3" patternUnits="userSpaceOnUse" width="3" height="3" patternTransform="matrix(0.944947,0,0,-0.944947,0,170.477)">
<use xlink:href="#surface14"/>
</pattern>
<clipPath id="clip16">
  <path d="M 47 95 L 89 95 L 89 137 L 47 137 Z M 47 95 "/>
</clipPath>
<clipPath id="clip17">
  <path d="M 47.820312 136.261719 L 68.230469 95.441406 L 88.640625 136.261719 L 47.820312 136.261719 "/>
</clipPath>
<clipPath id="clip18">
  <rect x="0" y="0" width="3" height="3"/>
</clipPath>
<g id="surface17" clip-path="url(#clip18)">
<path style=" stroke:none;fill-rule:nonzero;fill:rgb(69.999695%,69.999695%,69.999695%);fill-opacity:1;" d="M 0 0 L 1.5 0 L 1.5 3 L 0 3 Z M 0 0 "/>
</g>
<pattern id="pattern4" patternUnits="userSpaceOnUse" width="3" height="3" patternTransform="matrix(0.944947,0,0,-0.944947,0,170.477)">
<use xlink:href="#surface17"/>
</pattern>
<clipPath id="clip19">
  <path d="M 14 14 L 22 14 L 22 22 L 14 22 Z M 14 14 "/>
</clipPath>
<clipPath id="clip20">
  <path d="M 14.492188 21.292969 L 17.890625 14.492188 L 21.292969 21.292969 L 14.492188 21.292969 "/>
</clipPath>
<clipPath id="clip21">
  <rect x="0" y="0" width="3" height="3"/>
</clipPath>
<g id="surface20" clip-path="url(#clip21)">
<path style=" stroke:none;fill-rule:nonzero;fill:rgb(69.999695%,69.999695%,69.999695%);fill-opacity:1;" d="M 0 0 L 1 0 L 1 3 L 0 3 Z M 0 0 "/>
</g>
<pattern id="pattern5" patternUnits="userSpaceOnUse" width="3" height="3" patternTransform="matrix(0.70864,0,0,-0.944947,0,170.477)">
<use xlink:href="#surface20"/>
</pattern>
<clipPath id="clip22">
  <path d="M 22 6 L 30 6 L 30 14 L 22 14 Z M 22 6 "/>
</clipPath>
<clipPath id="clip23">
  <path d="M 22.425781 13.355469 L 25.828125 6.554688 L 29.230469 13.355469 L 22.425781 13.355469 "/>
</clipPath>
<clipPath id="clip24">
  <rect x="0" y="0" width="3" height="3"/>
</clipPath>
<g id="surface23" clip-path="url(#clip24)">
<path style=" stroke:none;fill-rule:nonzero;fill:rgb(69.999695%,69.999695%,69.999695%);fill-opacity:1;" d="M 0 0 L 1 0 L 1 3 L 0 3 Z M 0 0 "/>
</g>
<pattern id="pattern6" patternUnits="userSpaceOnUse" width="3" height="3" patternTransform="matrix(0.70864,0,0,-0.944947,0,170.477)">
<use xlink:href="#surface23"/>
</pattern>
<clipPath id="clip25">
  <path d="M 6 22 L 14 22 L 14 30 L 6 30 Z M 6 22 "/>
</clipPath>
<clipPath id="clip26">
  <path d="M 6.554688 29.230469 L 9.953125 22.425781 L 13.355469 29.230469 L 6.554688 29.230469 "/>
</clipPath>
<clipPath id="clip27">
  <rect x="0" y="0" width="3" height="3"/>
</clipPath>
<g id="surface26" clip-path="url(#clip27)">
<path style=" stroke:none;fill-rule:nonzero;fill:rgb(69.999695%,69.999695%,69.999695%);fill-opacity:1;" d="M 0 0 L 1 0 L 1 3 L 0 3 Z M 0 0 "/>
</g>
<pattern id="pattern7" patternUnits="userSpaceOnUse" width="3" height="3" patternTransform="matrix(0.70864,0,0,-0.944947,0,170.477)">
<use xlink:href="#surface26"/>
</pattern>
<clipPath id="clip28">
  <path d="M 17 9 L 25 9 L 25 17 L 17 17 Z M 17 9 "/>
</clipPath>
<clipPath id="clip29">
  <path d="M 17.324219 16.191406 L 20.726562 9.386719 L 24.128906 16.191406 L 17.324219 16.191406 "/>
</clipPath>
<clipPath id="clip30">
  <rect x="0" y="0" width="3" height="3"/>
</clipPath>
<g id="surface29" clip-path="url(#clip30)">
<path style=" stroke:none;fill-rule:nonzero;fill:rgb(69.999695%,69.999695%,69.999695%);fill-opacity:1;" d="M 0 0 L 1 0 L 1 3 L 0 3 Z M 0 0 "/>
</g>
<pattern id="pattern8" patternUnits="userSpaceOnUse" width="3" height="3" patternTransform="matrix(0.70864,0,0,-0.944947,0,170.477)">
<use xlink:href="#surface29"/>
</pattern>
<clipPath id="clip31">
  <path d="M 11 19 L 19 19 L 19 27 L 11 27 Z M 11 19 "/>
</clipPath>
<clipPath id="clip32">
  <path d="M 11.65625 26.394531 L 15.058594 19.59375 L 18.457031 26.394531 L 11.65625 26.394531 "/>
</clipPath>
<clipPath id="clip33">
  <rect x="0" y="0" width="3" height="3"/>
</clipPath>
<g id="surface32" clip-path="url(#clip33)">
<path style=" stroke:none;fill-rule:nonzero;fill:rgb(69.999695%,69.999695%,69.999695%);fill-opacity:1;" d="M 0 0 L 1 0 L 1 3 L 0 3 Z M 0 0 "/>
</g>
<pattern id="pattern9" patternUnits="userSpaceOnUse" width="3" height="3" patternTransform="matrix(0.70864,0,0,-0.944947,0,170.477)">
<use xlink:href="#surface32"/>
</pattern>
<clipPath id="clip34">
  <path d="M 149 149 L 156 149 L 156 156 L 149 156 Z M 149 149 "/>
</clipPath>
<clipPath id="clip35">
  <path d="M 149.183594 155.988281 L 152.585938 149.183594 L 155.988281 155.988281 L 149.183594 155.988281 "/>
</clipPath>
<clipPath id="clip36">
  <rect x="0" y="0" width="3" height="3"/>
</clipPath>
<g id="surface35" clip-path="url(#clip36)">
<path style=" stroke:none;fill-rule:nonzero;fill:rgb(69.999695%,69.999695%,69.999695%);fill-opacity:1;" d="M 0 0 L 1 0 L 1 3 L 0 3 Z M 0 0 "/>
</g>
<pattern id="pattern10" patternUnits="userSpaceOnUse" width="3" height="3" patternTransform="matrix(0.70864,0,0,-0.944947,0,170.477)">
<use xlink:href="#surface35"/>
</pattern>
<clipPath id="clip37">
  <path d="M 132 132 L 170.476562 132 L 170.476562 170.476562 L 132 170.476562 Z M 132 132 "/>
</clipPath>
<clipPath id="clip38">
  <path d="M 157 141 L 164 141 L 164 149 L 157 149 Z M 157 141 "/>
</clipPath>
<clipPath id="clip39">
  <path d="M 157.121094 148.050781 L 160.523438 141.246094 L 163.921875 148.050781 L 157.121094 148.050781 "/>
</clipPath>
<clipPath id="clip40">
  <rect x="0" y="0" width="3" height="3"/>
</clipPath>
<g id="surface38" clip-path="url(#clip40)">
<path style=" stroke:none;fill-rule:nonzero;fill:rgb(69.999695%,69.999695%,69.999695%);fill-opacity:1;" d="M 0 0 L 1 0 L 1 3 L 0 3 Z M 0 0 "/>
</g>
<pattern id="pattern11" patternUnits="userSpaceOnUse" width="3" height="3" patternTransform="matrix(0.70864,0,0,-0.944947,0,170.477)">
<use xlink:href="#surface38"/>
</pattern>
<clipPath id="clip41">
  <path d="M 140 124 L 170.476562 124 L 170.476562 165 L 140 165 Z M 140 124 "/>
</clipPath>
<clipPath id="clip42">
  <path d="M 141 157 L 149 157 L 149 164 L 141 164 Z M 141 157 "/>
</clipPath>
<clipPath id="clip43">
  <path d="M 141.246094 163.921875 L 144.648438 157.121094 L 148.050781 163.921875 L 141.246094 163.921875 "/>
</clipPath>
<clipPath id="clip44">
  <rect x="0" y="0" width="3" height="3"/>
</clipPath>
<g id="surface41" clip-path="url(#clip44)">
<path style=" stroke:none;fill-rule:nonzero;fill:rgb(69.999695%,69.999695%,69.999695%);fill-opacity:1;" d="M 0 0 L 1 0 L 1 3 L 0 3 Z M 0 0 "/>
</g>
<pattern id="pattern12" patternUnits="userSpaceOnUse" width="3" height="3" patternTransform="matrix(0.70864,0,0,-0.944947,0,170.477)">
<use xlink:href="#surface41"/>
</pattern>
<clipPath id="clip45">
  <path d="M 124 140 L 165 140 L 165 170.476562 L 124 170.476562 Z M 124 140 "/>
</clipPath>
<clipPath id="clip46">
  <path d="M 152 144 L 159 144 L 159 151 L 152 151 Z M 152 144 "/>
</clipPath>
<clipPath id="clip47">
  <path d="M 152.019531 150.882812 L 155.417969 144.082031 L 158.820312 150.882812 L 152.019531 150.882812 "/>
</clipPath>
<clipPath id="clip48">
  <rect x="0" y="0" width="3" height="3"/>
</clipPath>
<g id="surface44" clip-path="url(#clip48)">
<path style=" stroke:none;fill-rule:nonzero;fill:rgb(69.999695%,69.999695%,69.999695%);fill-opacity:1;" d="M 0 0 L 1 0 L 1 3 L 0 3 Z M 0 0 "/>
</g>
<pattern id="pattern13" patternUnits="userSpaceOnUse" width="3" height="3" patternTransform="matrix(0.70864,0,0,-0.944947,0,170.477)">
<use xlink:href="#surface44"/>
</pattern>
<clipPath id="clip49">
  <path d="M 135 127 L 170.476562 127 L 170.476562 168 L 135 168 Z M 135 127 "/>
</clipPath>
<clipPath id="clip50">
  <path d="M 146 154 L 154 154 L 154 162 L 146 162 Z M 146 154 "/>
</clipPath>
<clipPath id="clip51">
  <path d="M 146.347656 161.089844 L 149.75 154.285156 L 153.152344 161.089844 L 146.347656 161.089844 "/>
</clipPath>
<clipPath id="clip52">
  <rect x="0" y="0" width="3" height="3"/>
</clipPath>
<g id="surface47" clip-path="url(#clip52)">
<path style=" stroke:none;fill-rule:nonzero;fill:rgb(69.999695%,69.999695%,69.999695%);fill-opacity:1;" d="M 0 0 L 1 0 L 1 3 L 0 3 Z M 0 0 "/>
</g>
<pattern id="pattern14" patternUnits="userSpaceOnUse" width="3" height="3" patternTransform="matrix(0.70864,0,0,-0.944947,0,170.477)">
<use xlink:href="#surface47"/>
</pattern>
<clipPath id="clip53">
  <path d="M 129 137 L 170.476562 137 L 170.476562 170.476562 L 129 170.476562 Z M 129 137 "/>
</clipPath>
</defs>
<g id="surface1">
<g clip-path="url(#clip1)" clip-rule="nonzero">
<path style=" stroke:none;fill-rule:nonzero;fill:rgb(100%,100%,100%);fill-opacity:1;" d="M 0.199219 166.292969 L 0.199219 4.183594 C 0.199219 1.980469 1.984375 0.199219 4.183594 0.199219 L 166.292969 0.199219 C 168.496094 0.199219 170.277344 1.980469 170.277344 4.183594 L 170.277344 166.292969 C 170.277344 168.492188 168.496094 170.277344 166.292969 170.277344 L 4.183594 170.277344 C 1.984375 170.277344 0.199219 168.492188 0.199219 166.292969 Z M 0.199219 166.292969 "/>
</g>
<g clip-path="url(#clip2)" clip-rule="nonzero">
<g clip-path="url(#clip3)" clip-rule="nonzero">
<path style=" stroke:none;fill-rule:nonzero;fill:url(#pattern0);" d="M 64.828125 105.648438 L 105.648438 105.648438 L 105.648438 64.828125 L 64.828125 64.828125 Z M 64.828125 105.648438 "/>
</g>
</g>
<path style="fill:none;stroke-width:1.59404;stroke-linecap:butt;stroke-linejoin:miter;stroke:rgb(69.999695%,69.999695%,69.999695%);stroke-opacity:1;stroke-miterlimit:10;" d="M -20.410875 -20.410438 L -0.00071875 20.409875 L 20.409437 -20.410438 L -20.410875 -20.410438 " transform="matrix(1,0,0,-1,85.239,85.238)"/>
<g clip-path="url(#clip5)" clip-rule="nonzero">
<g clip-path="url(#clip6)" clip-rule="nonzero">
<path style=" stroke:none;fill-rule:nonzero;fill:url(#pattern1);" d="M 112.453125 58.027344 L 153.273438 58.027344 L 153.273438 17.207031 L 112.453125 17.207031 Z M 112.453125 58.027344 "/>
</g>
</g>
<g clip-path="url(#clip8)" clip-rule="nonzero">
<path style="fill:none;stroke-width:1.59404;stroke-linecap:butt;stroke-linejoin:miter;stroke:rgb(69.999695%,69.999695%,69.999695%);stroke-opacity:1;stroke-miterlimit:10;" d="M 27.214125 27.210656 L 47.620375 68.030969 L 68.030531 27.210656 L 27.214125 27.210656 " transform="matrix(1,0,0,-1,85.239,85.238)"/>
</g>
<g clip-path="url(#clip9)" clip-rule="nonzero">
<g clip-path="url(#clip10)" clip-rule="nonzero">
<path style=" stroke:none;fill-rule:nonzero;fill:url(#pattern2);" d="M 17.207031 153.269531 L 58.027344 153.269531 L 58.027344 112.449219 L 17.207031 112.449219 Z M 17.207031 153.269531 "/>
</g>
</g>
<g clip-path="url(#clip12)" clip-rule="nonzero">
<path style="fill:none;stroke-width:1.59404;stroke-linecap:butt;stroke-linejoin:miter;stroke:rgb(69.999695%,69.999695%,69.999695%);stroke-opacity:1;stroke-miterlimit:10;" d="M -68.031969 -68.031531 L -47.621813 -27.211219 L -27.211656 -68.031531 L -68.031969 -68.031531 " transform="matrix(1,0,0,-1,85.239,85.238)"/>
</g>
<g clip-path="url(#clip13)" clip-rule="nonzero">
<g clip-path="url(#clip14)" clip-rule="nonzero">
<path style=" stroke:none;fill-rule:nonzero;fill:url(#pattern3);" d="M 81.835938 75.035156 L 122.65625 75.035156 L 122.65625 34.214844 L 81.835938 34.214844 Z M 81.835938 75.035156 "/>
</g>
</g>
<path style="fill:none;stroke-width:1.59404;stroke-linecap:butt;stroke-linejoin:miter;stroke:rgb(69.999695%,69.999695%,69.999695%);stroke-opacity:1;stroke-miterlimit:10;" d="M -3.403063 10.202844 L 17.007094 51.023156 L 37.41725 10.202844 L -3.403063 10.202844 " transform="matrix(1,0,0,-1,85.239,85.238)"/>
<g clip-path="url(#clip16)" clip-rule="nonzero">
<g clip-path="url(#clip17)" clip-rule="nonzero">
<path style=" stroke:none;fill-rule:nonzero;fill:url(#pattern4);" d="M 47.820312 136.261719 L 88.640625 136.261719 L 88.640625 95.441406 L 47.820312 95.441406 Z M 47.820312 136.261719 "/>
</g>
</g>
<path style="fill:none;stroke-width:1.59404;stroke-linecap:butt;stroke-linejoin:miter;stroke:rgb(69.999695%,69.999695%,69.999695%);stroke-opacity:1;stroke-miterlimit:10;" d="M -37.418688 -51.023719 L -17.008531 -10.203406 L 3.401625 -51.023719 L -37.418688 -51.023719 " transform="matrix(1,0,0,-1,85.239,85.238)"/>
<path style=" stroke:none;fill-rule:nonzero;fill:rgb(100%,100%,100%);fill-opacity:1;" d="M 3.71875 28.078125 L 3.71875 7.703125 C 3.71875 5.503906 5.503906 3.71875 7.703125 3.71875 L 28.078125 3.71875 C 30.28125 3.71875 32.066406 5.503906 32.066406 7.703125 L 32.066406 28.078125 C 32.066406 30.28125 30.28125 32.066406 28.078125 32.066406 L 7.703125 32.066406 C 5.503906 32.066406 3.71875 30.28125 3.71875 28.078125 Z M 3.71875 28.078125 "/>
<g clip-path="url(#clip19)" clip-rule="nonzero">
<g clip-path="url(#clip20)" clip-rule="nonzero">
<path style=" stroke:none;fill-rule:nonzero;fill:url(#pattern5);" d="M 14.492188 21.292969 L 21.296875 21.292969 L 21.296875 14.488281 L 14.492188 14.488281 Z M 14.492188 21.292969 "/>
</g>
</g>
<path style="fill:none;stroke-width:1.19553;stroke-linecap:butt;stroke-linejoin:miter;stroke:rgb(69.999695%,69.999695%,69.999695%);stroke-opacity:1;stroke-miterlimit:10;" d="M -3.399813 -3.400969 L -0.001375 3.399812 L 3.400969 -3.400969 L -3.399813 -3.400969 " transform="matrix(1,0,0,-1,17.892,17.892)"/>
<g clip-path="url(#clip22)" clip-rule="nonzero">
<g clip-path="url(#clip23)" clip-rule="nonzero">
<path style=" stroke:none;fill-rule:nonzero;fill:url(#pattern6);" d="M 22.425781 13.355469 L 29.230469 13.355469 L 29.230469 6.550781 L 22.425781 6.550781 Z M 22.425781 13.355469 "/>
</g>
</g>
<path style="fill:none;stroke-width:1.19553;stroke-linecap:butt;stroke-linejoin:miter;stroke:rgb(69.999695%,69.999695%,69.999695%);stroke-opacity:1;stroke-miterlimit:10;" d="M 4.533781 4.536531 L 7.936125 11.337312 L 11.338469 4.536531 L 4.533781 4.536531 " transform="matrix(1,0,0,-1,17.892,17.892)"/>
<g clip-path="url(#clip25)" clip-rule="nonzero">
<g clip-path="url(#clip26)" clip-rule="nonzero">
<path style=" stroke:none;fill-rule:nonzero;fill:url(#pattern7);" d="M 6.554688 29.230469 L 13.359375 29.230469 L 13.359375 22.425781 L 6.554688 22.425781 Z M 6.554688 29.230469 "/>
</g>
</g>
<path style="fill:none;stroke-width:1.19553;stroke-linecap:butt;stroke-linejoin:miter;stroke:rgb(69.999695%,69.999695%,69.999695%);stroke-opacity:1;stroke-miterlimit:10;" d="M -11.337313 -11.338469 L -7.938875 -4.533781 L -4.536531 -11.338469 L -11.337313 -11.338469 " transform="matrix(1,0,0,-1,17.892,17.892)"/>
<g clip-path="url(#clip28)" clip-rule="nonzero">
<g clip-path="url(#clip29)" clip-rule="nonzero">
<path style=" stroke:none;fill-rule:nonzero;fill:url(#pattern8);" d="M 17.324219 16.191406 L 24.128906 16.191406 L 24.128906 9.386719 L 17.324219 9.386719 Z M 17.324219 16.191406 "/>
</g>
</g>
<path style="fill:none;stroke-width:1.19553;stroke-linecap:butt;stroke-linejoin:miter;stroke:rgb(69.999695%,69.999695%,69.999695%);stroke-opacity:1;stroke-miterlimit:10;" d="M -0.567781 1.700594 L 2.834562 8.505281 L 6.236906 1.700594 L -0.567781 1.700594 " transform="matrix(1,0,0,-1,17.892,17.892)"/>
<g clip-path="url(#clip31)" clip-rule="nonzero">
<g clip-path="url(#clip32)" clip-rule="nonzero">
<path style=" stroke:none;fill-rule:nonzero;fill:url(#pattern9);" d="M 11.65625 26.394531 L 18.460938 26.394531 L 18.460938 19.589844 L 11.65625 19.589844 Z M 11.65625 26.394531 "/>
</g>
</g>
<path style="fill:none;stroke-width:1.19553;stroke-linecap:butt;stroke-linejoin:miter;stroke:rgb(69.999695%,69.999695%,69.999695%);stroke-opacity:1;stroke-miterlimit:10;" d="M -6.23575 -8.502531 L -2.833406 -1.70175 L 0.565031 -8.502531 L -6.23575 -8.502531 " transform="matrix(1,0,0,-1,17.892,17.892)"/>
<path style=" stroke:none;fill-rule:nonzero;fill:rgb(100%,100%,100%);fill-opacity:1;" d="M 138.410156 162.773438 L 138.410156 142.398438 C 138.410156 140.195312 140.195312 138.410156 142.398438 138.410156 L 162.773438 138.410156 C 164.972656 138.410156 166.757812 140.195312 166.757812 142.398438 L 166.757812 162.773438 C 166.757812 164.972656 164.972656 166.757812 162.773438 166.757812 L 142.398438 166.757812 C 140.195312 166.757812 138.410156 164.972656 138.410156 162.773438 Z M 138.410156 162.773438 "/>
<g clip-path="url(#clip34)" clip-rule="nonzero">
<g clip-path="url(#clip35)" clip-rule="nonzero">
<path style=" stroke:none;fill-rule:nonzero;fill:url(#pattern10);" d="M 149.183594 155.988281 L 155.988281 155.988281 L 155.988281 149.183594 L 149.183594 149.183594 Z M 149.183594 155.988281 "/>
</g>
</g>
<g clip-path="url(#clip37)" clip-rule="nonzero">
<path style="fill:none;stroke-width:1.19553;stroke-linecap:butt;stroke-linejoin:miter;stroke:rgb(69.999695%,69.999695%,69.999695%);stroke-opacity:1;stroke-miterlimit:10;" d="M -3.401406 -3.403281 L 0.0009375 3.401406 L 3.403281 -3.403281 L -3.401406 -3.403281 " transform="matrix(1,0,0,-1,152.585,152.585)"/>
</g>
<g clip-path="url(#clip38)" clip-rule="nonzero">
<g clip-path="url(#clip39)" clip-rule="nonzero">
<path style=" stroke:none;fill-rule:nonzero;fill:url(#pattern11);" d="M 157.121094 148.050781 L 163.925781 148.050781 L 163.925781 141.246094 L 157.121094 141.246094 Z M 157.121094 148.050781 "/>
</g>
</g>
<g clip-path="url(#clip41)" clip-rule="nonzero">
<path style="fill:none;stroke-width:1.19553;stroke-linecap:butt;stroke-linejoin:miter;stroke:rgb(69.999695%,69.999695%,69.999695%);stroke-opacity:1;stroke-miterlimit:10;" d="M 4.536094 4.534219 L 7.938437 11.338906 L 11.336875 4.534219 L 4.536094 4.534219 " transform="matrix(1,0,0,-1,152.585,152.585)"/>
</g>
<g clip-path="url(#clip42)" clip-rule="nonzero">
<g clip-path="url(#clip43)" clip-rule="nonzero">
<path style=" stroke:none;fill-rule:nonzero;fill:url(#pattern12);" d="M 141.246094 163.921875 L 148.050781 163.921875 L 148.050781 157.117188 L 141.246094 157.117188 Z M 141.246094 163.921875 "/>
</g>
</g>
<g clip-path="url(#clip45)" clip-rule="nonzero">
<path style="fill:none;stroke-width:1.19553;stroke-linecap:butt;stroke-linejoin:miter;stroke:rgb(69.999695%,69.999695%,69.999695%);stroke-opacity:1;stroke-miterlimit:10;" d="M -11.338906 -11.336875 L -7.936563 -4.536094 L -4.534219 -11.336875 L -11.338906 -11.336875 " transform="matrix(1,0,0,-1,152.585,152.585)"/>
</g>
<g clip-path="url(#clip46)" clip-rule="nonzero">
<g clip-path="url(#clip47)" clip-rule="nonzero">
<path style=" stroke:none;fill-rule:nonzero;fill:url(#pattern13);" d="M 152.019531 150.882812 L 158.824219 150.882812 L 158.824219 144.078125 L 152.019531 144.078125 Z M 152.019531 150.882812 "/>
</g>
</g>
<g clip-path="url(#clip49)" clip-rule="nonzero">
<path style="fill:none;stroke-width:1.19553;stroke-linecap:butt;stroke-linejoin:miter;stroke:rgb(69.999695%,69.999695%,69.999695%);stroke-opacity:1;stroke-miterlimit:10;" d="M -0.565469 1.702187 L 2.832969 8.502969 L 6.235312 1.702187 L -0.565469 1.702187 " transform="matrix(1,0,0,-1,152.585,152.585)"/>
</g>
<g clip-path="url(#clip50)" clip-rule="nonzero">
<g clip-path="url(#clip51)" clip-rule="nonzero">
<path style=" stroke:none;fill-rule:nonzero;fill:url(#pattern14);" d="M 146.347656 161.089844 L 153.152344 161.089844 L 153.152344 154.285156 L 146.347656 154.285156 Z M 146.347656 161.089844 "/>
</g>
</g>
<g clip-path="url(#clip53)" clip-rule="nonzero">
<path style="fill:none;stroke-width:1.19553;stroke-linecap:butt;stroke-linejoin:miter;stroke:rgb(69.999695%,69.999695%,69.999695%);stroke-opacity:1;stroke-miterlimit:10;" d="M -6.237344 -8.504844 L -2.835 -1.700156 L 0.567344 -8.504844 L -6.237344 -8.504844 " transform="matrix(1,0,0,-1,152.585,152.585)"/>
</g>
</g>
</svg>
