<?xml version="1.0" encoding="UTF-8"?>
<svg xmlns="http://www.w3.org/2000/svg" xmlns:xlink="http://www.w3.org/1999/xlink" width="170.477pt" height="170.477pt" viewBox="0 0 170.477 170.477" version="1.1">
<defs>
<clipPath id="clip1">
  <path d="M 0 0 L 170.476562 0 L 170.476562 170.476562 L 0 170.476562 Z M 0 0 "/>
</clipPath>
<clipPath id="clip2">
  <path d="M 59 59 L 111 59 L 111 111 L 59 111 Z M 59 59 "/>
</clipPath>
<clipPath id="clip3">
  <path d="M 59.726562 85.238281 L 68.230469 76.734375 L 68.230469 68.230469 L 76.734375 68.230469 L 85.238281 59.726562 L 93.742188 68.230469 L 102.246094 68.230469 L 102.246094 76.734375 L 110.75 85.238281 L 102.246094 93.742188 L 102.246094 102.246094 L 93.742188 102.246094 L 85.238281 110.75 L 76.734375 102.246094 L 68.230469 102.246094 L 68.230469 93.742188 L 59.726562 85.238281 "/>
</clipPath>
<clipPath id="clip4">
  <rect x="0" y="0" width="3" height="3"/>
</clipPath>
<g id="surface5" clip-path="url(#clip4)">
<path style=" stroke:none;fill-rule:nonzero;fill:rgb(69.999695%,69.999695%,69.999695%);fill-opacity:1;" d="M 0 0 L 1.5 0 L 1.5 3 L 0 3 Z M 0 0 "/>
</g>
<pattern id="pattern0" patternUnits="userSpaceOnUse" width="3" height="3" patternTransform="matrix(0.944947,0,0,-0.944947,0,170.477)">
<use xlink:href="#surface5"/>
</pattern>
<clipPath id="clip5">
  <path d="M 107 12 L 159 12 L 159 64 L 107 64 Z M 107 12 "/>
</clipPath>
<clipPath id="clip6">
  <path d="M 107.347656 37.617188 L 115.851562 29.113281 L 115.851562 20.609375 L 124.355469 20.609375 L 132.859375 12.105469 L 141.367188 20.609375 L 149.871094 20.609375 L 149.871094 29.113281 L 158.375 37.617188 L 149.871094 46.121094 L 149.871094 54.625 L 141.367188 54.625 L 132.859375 63.128906 L 124.355469 54.625 L 115.851562 54.625 L 115.851562 46.121094 L 107.347656 37.617188 "/>
</clipPath>
<clipPath id="clip7">
  <rect x="0" y="0" width="3" height="3"/>
</clipPath>
<g id="surface8" clip-path="url(#clip7)">
<path style=" stroke:none;fill-rule:nonzero;fill:rgb(69.999695%,69.999695%,69.999695%);fill-opacity:1;" d="M 0 0 L 1.5 0 L 1.5 3 L 0 3 Z M 0 0 "/>
</g>
<pattern id="pattern1" patternUnits="userSpaceOnUse" width="3" height="3" patternTransform="matrix(0.944947,0,0,-0.944947,0,170.477)">
<use xlink:href="#surface8"/>
</pattern>
<clipPath id="clip8">
  <path d="M 84 0 L 170.476562 0 L 170.476562 86 L 84 86 Z M 84 0 "/>
</clipPath>
<clipPath id="clip9">
  <path d="M 12 107 L 64 107 L 64 159 L 12 159 Z M 12 107 "/>
</clipPath>
<clipPath id="clip10">
  <path d="M 12.105469 132.859375 L 20.609375 124.355469 L 20.609375 115.851562 L 29.113281 115.851562 L 37.617188 107.347656 L 46.121094 115.851562 L 54.625 115.851562 L 54.625 124.355469 L 63.128906 132.859375 L 54.625 141.363281 L 54.625 149.867188 L 46.121094 149.867188 L 37.617188 158.371094 L 29.113281 149.867188 L 20.609375 149.867188 L 20.609375 141.363281 L 12.105469 132.859375 "/>
</clipPath>
<clipPath id="clip11">
  <rect x="0" y="0" width="3" height="3"/>
</clipPath>
<g id="surface11" clip-path="url(#clip11)">
<path style=" stroke:none;fill-rule:nonzero;fill:rgb(69.999695%,69.999695%,69.999695%);fill-opacity:1;" d="M 0 0 L 1.5 0 L 1.5 3 L 0 3 Z M 0 0 "/>
</g>
<pattern id="pattern2" patternUnits="userSpaceOnUse" width="3" height="3" patternTransform="matrix(0.944947,0,0,-0.944947,0,170.477)">
<use xlink:href="#surface11"/>
</pattern>
<clipPath id="clip12">
  <path d="M 0 84 L 86 84 L 86 170.476562 L 0 170.476562 Z M 0 84 "/>
</clipPath>
<clipPath id="clip13">
  <path d="M 13 13 L 23 13 L 23 23 L 13 23 Z M 13 13 "/>
</clipPath>
<clipPath id="clip14">
  <path d="M 13.640625 17.890625 L 15.058594 16.476562 L 15.058594 15.058594 L 16.476562 15.058594 L 17.890625 13.640625 L 19.308594 15.058594 L 20.726562 15.058594 L 20.726562 16.476562 L 22.144531 17.890625 L 20.726562 19.308594 L 20.726562 20.726562 L 19.308594 20.726562 L 17.890625 22.144531 L 16.476562 20.726562 L 15.058594 20.726562 L 15.058594 19.308594 L 13.640625 17.890625 "/>
</clipPath>
<clipPath id="clip15">
  <rect x="0" y="0" width="3" height="3"/>
</clipPath>
<g id="surface14" clip-path="url(#clip15)">
<path style=" stroke:none;fill-rule:nonzero;fill:rgb(69.999695%,69.999695%,69.999695%);fill-opacity:1;" d="M 0 0 L 1 0 L 1 3 L 0 3 Z M 0 0 "/>
</g>
<pattern id="pattern3" patternUnits="userSpaceOnUse" width="3" height="3" patternTransform="matrix(0.70864,0,0,-0.944947,0,170.477)">
<use xlink:href="#surface14"/>
</pattern>
<clipPath id="clip16">
  <path d="M 21 5 L 31 5 L 31 15 L 21 15 Z M 21 5 "/>
</clipPath>
<clipPath id="clip17">
  <path d="M 21.578125 9.953125 L 22.996094 8.539062 L 22.996094 7.121094 L 24.410156 7.121094 L 25.828125 5.703125 L 27.246094 7.121094 L 28.664062 7.121094 L 28.664062 8.539062 L 30.082031 9.953125 L 28.664062 11.371094 L 28.664062 12.789062 L 27.246094 12.789062 L 25.828125 14.207031 L 24.410156 12.789062 L 22.996094 12.789062 L 22.996094 11.371094 L 21.578125 9.953125 "/>
</clipPath>
<clipPath id="clip18">
  <rect x="0" y="0" width="3" height="3"/>
</clipPath>
<g id="surface17" clip-path="url(#clip18)">
<path style=" stroke:none;fill-rule:nonzero;fill:rgb(69.999695%,69.999695%,69.999695%);fill-opacity:1;" d="M 0 0 L 1 0 L 1 3 L 0 3 Z M 0 0 "/>
</g>
<pattern id="pattern4" patternUnits="userSpaceOnUse" width="3" height="3" patternTransform="matrix(0.70864,0,0,-0.944947,0,170.477)">
<use xlink:href="#surface17"/>
</pattern>
<clipPath id="clip19">
  <path d="M 5 21 L 15 21 L 15 31 L 5 31 Z M 5 21 "/>
</clipPath>
<clipPath id="clip20">
  <path d="M 5.703125 25.828125 L 7.121094 24.410156 L 7.121094 22.996094 L 8.539062 22.996094 L 9.953125 21.578125 L 11.371094 22.996094 L 12.789062 22.996094 L 12.789062 24.410156 L 14.207031 25.828125 L 12.789062 27.246094 L 12.789062 28.664062 L 11.371094 28.664062 L 9.953125 30.082031 L 8.539062 28.664062 L 7.121094 28.664062 L 7.121094 27.246094 L 5.703125 25.828125 "/>
</clipPath>
<clipPath id="clip21">
  <rect x="0" y="0" width="3" height="3"/>
</clipPath>
<g id="surface20" clip-path="url(#clip21)">
<path style=" stroke:none;fill-rule:nonzero;fill:rgb(69.999695%,69.999695%,69.999695%);fill-opacity:1;" d="M 0 0 L 1 0 L 1 3 L 0 3 Z M 0 0 "/>
</g>
<pattern id="pattern5" patternUnits="userSpaceOnUse" width="3" height="3" patternTransform="matrix(0.70864,0,0,-0.944947,0,170.477)">
<use xlink:href="#surface20"/>
</pattern>
<clipPath id="clip22">
  <path d="M 148 148 L 157 148 L 157 157 L 148 157 Z M 148 148 "/>
</clipPath>
<clipPath id="clip23">
  <path d="M 148.332031 152.585938 L 149.75 151.167969 L 149.75 149.75 L 151.167969 149.75 L 152.585938 148.332031 L 154.003906 149.75 L 155.417969 149.75 L 155.417969 151.167969 L 156.835938 152.585938 L 155.417969 154.003906 L 155.417969 155.417969 L 154.003906 155.417969 L 152.585938 156.835938 L 151.167969 155.417969 L 149.75 155.417969 L 149.75 154.003906 L 148.332031 152.585938 "/>
</clipPath>
<clipPath id="clip24">
  <rect x="0" y="0" width="3" height="3"/>
</clipPath>
<g id="surface23" clip-path="url(#clip24)">
<path style=" stroke:none;fill-rule:nonzero;fill:rgb(69.999695%,69.999695%,69.999695%);fill-opacity:1;" d="M 0 0 L 1 0 L 1 3 L 0 3 Z M 0 0 "/>
</g>
<pattern id="pattern6" patternUnits="userSpaceOnUse" width="3" height="3" patternTransform="matrix(0.70864,0,0,-0.944947,0,170.477)">
<use xlink:href="#surface23"/>
</pattern>
<clipPath id="clip25">
  <path d="M 131 131 L 170.476562 131 L 170.476562 170.476562 L 131 170.476562 Z M 131 131 "/>
</clipPath>
<clipPath id="clip26">
  <path d="M 156 140 L 165 140 L 165 149 L 156 149 Z M 156 140 "/>
</clipPath>
<clipPath id="clip27">
  <path d="M 156.269531 144.648438 L 157.6875 143.230469 L 157.6875 141.8125 L 159.105469 141.8125 L 160.523438 140.394531 L 161.9375 141.8125 L 163.355469 141.8125 L 163.355469 143.230469 L 164.773438 144.648438 L 163.355469 146.066406 L 163.355469 147.484375 L 161.9375 147.484375 L 160.523438 148.898438 L 159.105469 147.484375 L 157.6875 147.484375 L 157.6875 146.066406 L 156.269531 144.648438 "/>
</clipPath>
<clipPath id="clip28">
  <rect x="0" y="0" width="3" height="3"/>
</clipPath>
<g id="surface26" clip-path="url(#clip28)">
<path style=" stroke:none;fill-rule:nonzero;fill:rgb(69.999695%,69.999695%,69.999695%);fill-opacity:1;" d="M 0 0 L 1 0 L 1 3 L 0 3 Z M 0 0 "/>
</g>
<pattern id="pattern7" patternUnits="userSpaceOnUse" width="3" height="3" patternTransform="matrix(0.70864,0,0,-0.944947,0,170.477)">
<use xlink:href="#surface26"/>
</pattern>
<clipPath id="clip29">
  <path d="M 139 123 L 170.476562 123 L 170.476562 166 L 139 166 Z M 139 123 "/>
</clipPath>
<clipPath id="clip30">
  <path d="M 140 156 L 149 156 L 149 165 L 140 165 Z M 140 156 "/>
</clipPath>
<clipPath id="clip31">
  <path d="M 140.394531 160.523438 L 141.8125 159.105469 L 141.8125 157.6875 L 143.230469 157.6875 L 144.648438 156.269531 L 146.066406 157.6875 L 147.484375 157.6875 L 147.484375 159.105469 L 148.898438 160.523438 L 147.484375 161.9375 L 147.484375 163.355469 L 146.066406 163.355469 L 144.648438 164.773438 L 143.230469 163.355469 L 141.8125 163.355469 L 141.8125 161.9375 L 140.394531 160.523438 "/>
</clipPath>
<clipPath id="clip32">
  <rect x="0" y="0" width="3" height="3"/>
</clipPath>
<g id="surface29" clip-path="url(#clip32)">
<path style=" stroke:none;fill-rule:nonzero;fill:rgb(69.999695%,69.999695%,69.999695%);fill-opacity:1;" d="M 0 0 L 1 0 L 1 3 L 0 3 Z M 0 0 "/>
</g>
<pattern id="pattern8" patternUnits="userSpaceOnUse" width="3" height="3" patternTransform="matrix(0.70864,0,0,-0.944947,0,170.477)">
<use xlink:href="#surface29"/>
</pattern>
<clipPath id="clip33">
  <path d="M 123 139 L 166 139 L 166 170.476562 L 123 170.476562 Z M 123 139 "/>
</clipPath>
</defs>
<g id="surface1">
<g clip-path="url(#clip1)" clip-rule="nonzero">
<path style=" stroke:none;fill-rule:nonzero;fill:rgb(100%,100%,100%);fill-opacity:1;" d="M 0.199219 166.292969 L 0.199219 4.183594 C 0.199219 1.980469 1.984375 0.199219 4.183594 0.199219 L 166.292969 0.199219 C 168.496094 0.199219 170.277344 1.980469 170.277344 4.183594 L 170.277344 166.292969 C 170.277344 168.492188 168.496094 170.277344 166.292969 170.277344 L 4.183594 170.277344 C 1.984375 170.277344 0.199219 168.492188 0.199219 166.292969 Z M 0.199219 166.292969 "/>
</g>
<g clip-path="url(#clip2)" clip-rule="nonzero">
<g clip-path="url(#clip3)" clip-rule="nonzero">
<path style=" stroke:none;fill-rule:nonzero;fill:url(#pattern0);" d="M 59.726562 110.75 L 110.75 110.75 L 110.75 59.726562 L 59.726562 59.726562 Z M 59.726562 110.75 "/>
</g>
</g>
<path style="fill:none;stroke-width:1.59404;stroke-linecap:butt;stroke-linejoin:miter;stroke:rgb(69.999695%,69.999695%,69.999695%);stroke-opacity:1;stroke-miterlimit:10;" d="M -25.512438 -0.00028125 L -17.008531 8.503625 L -17.008531 17.007531 L -8.504625 17.007531 L -0.00071875 25.511437 L 8.503187 17.007531 L 17.007094 17.007531 L 17.007094 8.503625 L 25.511 -0.00028125 L 17.007094 -8.504188 L 17.007094 -17.008094 L 8.503187 -17.008094 L -0.00071875 -25.512 L -8.504625 -17.008094 L -17.008531 -17.008094 L -17.008531 -8.504188 L -25.512438 -0.00028125 " transform="matrix(1,0,0,-1,85.239,85.238)"/>
<g clip-path="url(#clip5)" clip-rule="nonzero">
<g clip-path="url(#clip6)" clip-rule="nonzero">
<path style=" stroke:none;fill-rule:nonzero;fill:url(#pattern1);" d="M 107.347656 63.128906 L 158.371094 63.128906 L 158.371094 12.105469 L 107.347656 12.105469 Z M 107.347656 63.128906 "/>
</g>
</g>
<g clip-path="url(#clip8)" clip-rule="nonzero">
<path style="fill:none;stroke-width:1.59404;stroke-linecap:butt;stroke-linejoin:miter;stroke:rgb(69.999695%,69.999695%,69.999695%);stroke-opacity:1;stroke-miterlimit:10;" d="M 22.108656 47.620812 L 30.612562 56.124719 L 30.612562 64.628625 L 39.116469 64.628625 L 47.620375 73.132531 L 56.128187 64.628625 L 64.632094 64.628625 L 64.632094 56.124719 L 73.136 47.620812 L 64.632094 39.116906 L 64.632094 30.613 L 56.128187 30.613 L 47.620375 22.109094 L 39.116469 30.613 L 30.612562 30.613 L 30.612562 39.116906 L 22.108656 47.620812 " transform="matrix(1,0,0,-1,85.239,85.238)"/>
</g>
<g clip-path="url(#clip9)" clip-rule="nonzero">
<g clip-path="url(#clip10)" clip-rule="nonzero">
<path style=" stroke:none;fill-rule:nonzero;fill:url(#pattern2);" d="M 12.105469 158.371094 L 63.128906 158.371094 L 63.128906 107.347656 L 12.105469 107.347656 Z M 12.105469 158.371094 "/>
</g>
</g>
<g clip-path="url(#clip12)" clip-rule="nonzero">
<path style="fill:none;stroke-width:1.59404;stroke-linecap:butt;stroke-linejoin:miter;stroke:rgb(69.999695%,69.999695%,69.999695%);stroke-opacity:1;stroke-miterlimit:10;" d="M -73.133531 -47.621375 L -64.629625 -39.117469 L -64.629625 -30.613563 L -56.125719 -30.613563 L -47.621813 -22.109656 L -39.117906 -30.613563 L -30.614 -30.613563 L -30.614 -39.117469 L -22.110094 -47.621375 L -30.614 -56.125281 L -30.614 -64.629188 L -39.117906 -64.629188 L -47.621813 -73.133094 L -56.125719 -64.629188 L -64.629625 -64.629188 L -64.629625 -56.125281 L -73.133531 -47.621375 " transform="matrix(1,0,0,-1,85.239,85.238)"/>
</g>
<path style=" stroke:none;fill-rule:nonzero;fill:rgb(100%,100%,100%);fill-opacity:1;" d="M 3.71875 28.078125 L 3.71875 7.703125 C 3.71875 5.503906 5.503906 3.71875 7.703125 3.71875 L 28.078125 3.71875 C 30.28125 3.71875 32.066406 5.503906 32.066406 7.703125 L 32.066406 28.078125 C 32.066406 30.28125 30.28125 32.066406 28.078125 32.066406 L 7.703125 32.066406 C 5.503906 32.066406 3.71875 30.28125 3.71875 28.078125 Z M 3.71875 28.078125 "/>
<g clip-path="url(#clip13)" clip-rule="nonzero">
<g clip-path="url(#clip14)" clip-rule="nonzero">
<path style=" stroke:none;fill-rule:nonzero;fill:url(#pattern3);" d="M 13.640625 22.144531 L 22.144531 22.144531 L 22.144531 13.640625 L 13.640625 13.640625 Z M 13.640625 22.144531 "/>
</g>
</g>
<path style="fill:none;stroke-width:1.19553;stroke-linecap:butt;stroke-linejoin:miter;stroke:rgb(69.999695%,69.999695%,69.999695%);stroke-opacity:1;stroke-miterlimit:10;" d="M -4.251375 0.001375 L -2.833406 1.415437 L -2.833406 2.833406 L -1.415438 2.833406 L -0.001375 4.251375 L 1.416594 2.833406 L 2.834562 2.833406 L 2.834562 1.415437 L 4.252531 0.001375 L 2.834562 -1.416594 L 2.834562 -2.834563 L 1.416594 -2.834563 L -0.001375 -4.252531 L -1.415438 -2.834563 L -2.833406 -2.834563 L -2.833406 -1.416594 L -4.251375 0.001375 " transform="matrix(1,0,0,-1,17.892,17.892)"/>
<g clip-path="url(#clip16)" clip-rule="nonzero">
<g clip-path="url(#clip17)" clip-rule="nonzero">
<path style=" stroke:none;fill-rule:nonzero;fill:url(#pattern4);" d="M 21.578125 14.207031 L 30.082031 14.207031 L 30.082031 5.703125 L 21.578125 5.703125 Z M 21.578125 14.207031 "/>
</g>
</g>
<path style="fill:none;stroke-width:1.19553;stroke-linecap:butt;stroke-linejoin:miter;stroke:rgb(69.999695%,69.999695%,69.999695%);stroke-opacity:1;stroke-miterlimit:10;" d="M 3.686125 7.938875 L 5.104094 9.352937 L 5.104094 10.770906 L 6.518156 10.770906 L 7.936125 12.188875 L 9.354094 10.770906 L 10.772062 10.770906 L 10.772062 9.352937 L 12.190031 7.938875 L 10.772062 6.520906 L 10.772062 5.102937 L 9.354094 5.102937 L 7.936125 3.684969 L 6.518156 5.102937 L 5.104094 5.102937 L 5.104094 6.520906 L 3.686125 7.938875 " transform="matrix(1,0,0,-1,17.892,17.892)"/>
<g clip-path="url(#clip19)" clip-rule="nonzero">
<g clip-path="url(#clip20)" clip-rule="nonzero">
<path style=" stroke:none;fill-rule:nonzero;fill:url(#pattern5);" d="M 5.703125 30.082031 L 14.207031 30.082031 L 14.207031 21.578125 L 5.703125 21.578125 Z M 5.703125 30.082031 "/>
</g>
</g>
<path style="fill:none;stroke-width:1.19553;stroke-linecap:butt;stroke-linejoin:miter;stroke:rgb(69.999695%,69.999695%,69.999695%);stroke-opacity:1;stroke-miterlimit:10;" d="M -12.188875 -7.936125 L -10.770906 -6.518156 L -10.770906 -5.104094 L -9.352938 -5.104094 L -7.938875 -3.686125 L -6.520906 -5.104094 L -5.102938 -5.104094 L -5.102938 -6.518156 L -3.684969 -7.936125 L -5.102938 -9.354094 L -5.102938 -10.772063 L -6.520906 -10.772063 L -7.938875 -12.190031 L -9.352938 -10.772063 L -10.770906 -10.772063 L -10.770906 -9.354094 L -12.188875 -7.936125 " transform="matrix(1,0,0,-1,17.892,17.892)"/>
<path style=" stroke:none;fill-rule:nonzero;fill:rgb(100%,100%,100%);fill-opacity:1;" d="M 138.410156 162.773438 L 138.410156 142.398438 C 138.410156 140.195312 140.195312 138.410156 142.398438 138.410156 L 162.773438 138.410156 C 164.972656 138.410156 166.757812 140.195312 166.757812 142.398438 L 166.757812 162.773438 C 166.757812 164.972656 164.972656 166.757812 162.773438 166.757812 L 142.398438 166.757812 C 140.195312 166.757812 138.410156 164.972656 138.410156 162.773438 Z M 138.410156 162.773438 "/>
<g clip-path="url(#clip22)" clip-rule="nonzero">
<g clip-path="url(#clip23)" clip-rule="nonzero">
<path style=" stroke:none;fill-rule:nonzero;fill:url(#pattern6);" d="M 148.332031 156.835938 L 156.835938 156.835938 L 156.835938 148.332031 L 148.332031 148.332031 Z M 148.332031 156.835938 "/>
</g>
</g>
<g clip-path="url(#clip25)" clip-rule="nonzero">
<path style="fill:none;stroke-width:1.19553;stroke-linecap:butt;stroke-linejoin:miter;stroke:rgb(69.999695%,69.999695%,69.999695%);stroke-opacity:1;stroke-miterlimit:10;" d="M -4.252969 -0.0009375 L -2.835 1.417031 L -2.835 2.835 L -1.417031 2.835 L 0.0009375 4.252969 L 1.418906 2.835 L 2.832969 2.835 L 2.832969 1.417031 L 4.250937 -0.0009375 L 2.832969 -1.418906 L 2.832969 -2.832969 L 1.418906 -2.832969 L 0.0009375 -4.250938 L -1.417031 -2.832969 L -2.835 -2.832969 L -2.835 -1.418906 L -4.252969 -0.0009375 " transform="matrix(1,0,0,-1,152.585,152.585)"/>
</g>
<g clip-path="url(#clip26)" clip-rule="nonzero">
<g clip-path="url(#clip27)" clip-rule="nonzero">
<path style=" stroke:none;fill-rule:nonzero;fill:url(#pattern7);" d="M 156.269531 148.898438 L 164.773438 148.898438 L 164.773438 140.394531 L 156.269531 140.394531 Z M 156.269531 148.898438 "/>
</g>
</g>
<g clip-path="url(#clip29)" clip-rule="nonzero">
<path style="fill:none;stroke-width:1.19553;stroke-linecap:butt;stroke-linejoin:miter;stroke:rgb(69.999695%,69.999695%,69.999695%);stroke-opacity:1;stroke-miterlimit:10;" d="M 3.684531 7.936562 L 5.1025 9.354531 L 5.1025 10.7725 L 6.520469 10.7725 L 7.938437 12.190469 L 9.3525 10.7725 L 10.770469 10.7725 L 10.770469 9.354531 L 12.188437 7.936562 L 10.770469 6.518594 L 10.770469 5.100625 L 9.3525 5.100625 L 7.938437 3.686562 L 6.520469 5.100625 L 5.1025 5.100625 L 5.1025 6.518594 L 3.684531 7.936562 " transform="matrix(1,0,0,-1,152.585,152.585)"/>
</g>
<g clip-path="url(#clip30)" clip-rule="nonzero">
<g clip-path="url(#clip31)" clip-rule="nonzero">
<path style=" stroke:none;fill-rule:nonzero;fill:url(#pattern8);" d="M 140.394531 164.773438 L 148.898438 164.773438 L 148.898438 156.269531 L 140.394531 156.269531 Z M 140.394531 164.773438 "/>
</g>
</g>
<g clip-path="url(#clip33)" clip-rule="nonzero">
<path style="fill:none;stroke-width:1.19553;stroke-linecap:butt;stroke-linejoin:miter;stroke:rgb(69.999695%,69.999695%,69.999695%);stroke-opacity:1;stroke-miterlimit:10;" d="M -12.190469 -7.938438 L -10.7725 -6.520469 L -10.7725 -5.1025 L -9.354531 -5.1025 L -7.936563 -3.684531 L -6.518594 -5.1025 L -5.100625 -5.1025 L -5.100625 -6.520469 L -3.686563 -7.938438 L -5.100625 -9.3525 L -5.100625 -10.770469 L -6.518594 -10.770469 L -7.936563 -12.188438 L -9.354531 -10.770469 L -10.7725 -10.770469 L -10.7725 -9.3525 L -12.190469 -7.938438 " transform="matrix(1,0,0,-1,152.585,152.585)"/>
</g>
</g>
</svg>
