<?xml version="1.0" encoding="UTF-8"?>
<svg xmlns="http://www.w3.org/2000/svg" xmlns:xlink="http://www.w3.org/1999/xlink" width="170.477pt" height="170.477pt" viewBox="0 0 170.477 170.477" version="1.1">
<defs>
<clipPath id="clip1">
  <path d="M 0 0 L 170.476562 0 L 170.476562 170.476562 L 0 170.476562 Z M 0 0 "/>
</clipPath>
<clipPath id="clip2">
  <path d="M 64 64 L 106 64 L 106 106 L 64 106 Z M 64 64 "/>
</clipPath>
<clipPath id="clip3">
  <path d="M 105.648438 85.238281 C 105.648438 73.964844 96.511719 64.828125 85.238281 64.828125 C 73.96875 64.828125 64.828125 73.964844 64.828125 85.238281 C 64.828125 96.511719 73.96875 105.648438 85.238281 105.648438 C 96.511719 105.648438 105.648438 96.511719 105.648438 85.238281 Z M 105.648438 85.238281 "/>
</clipPath>
<clipPath id="clip4">
  <rect x="0" y="0" width="3" height="3"/>
</clipPath>
<g id="surface5" clip-path="url(#clip4)">
<path style=" stroke:none;fill-rule:nonzero;fill:rgb(100%,0%,0%);fill-opacity:1;" d="M 0 0 L 1.5 0 L 1.5 3 L 0 3 Z M 0 0 "/>
</g>
<pattern id="pattern0" patternUnits="userSpaceOnUse" width="3" height="3" patternTransform="matrix(0.944947,0,0,-0.944947,0,170.477)">
<use xlink:href="#surface5"/>
</pattern>
<clipPath id="clip5">
  <path d="M 112 17 L 154 17 L 154 59 L 112 59 Z M 112 17 "/>
</clipPath>
<clipPath id="clip6">
  <path d="M 153.269531 37.617188 C 153.269531 26.34375 144.132812 17.207031 132.859375 17.207031 C 121.589844 17.207031 112.453125 26.34375 112.453125 37.617188 C 112.453125 48.886719 121.589844 58.027344 132.859375 58.027344 C 144.132812 58.027344 153.269531 48.886719 153.269531 37.617188 Z M 153.269531 37.617188 "/>
</clipPath>
<clipPath id="clip7">
  <rect x="0" y="0" width="3" height="3"/>
</clipPath>
<g id="surface8" clip-path="url(#clip7)">
<path style=" stroke:none;fill-rule:nonzero;fill:rgb(100%,0%,0%);fill-opacity:1;" d="M 0 0 L 1.5 0 L 1.5 3 L 0 3 Z M 0 0 "/>
</g>
<pattern id="pattern1" patternUnits="userSpaceOnUse" width="3" height="3" patternTransform="matrix(0.944947,0,0,-0.944947,0,170.477)">
<use xlink:href="#surface8"/>
</pattern>
<clipPath id="clip8">
  <path d="M 89 0 L 170.476562 0 L 170.476562 81 L 89 81 Z M 89 0 "/>
</clipPath>
<clipPath id="clip9">
  <path d="M 17 112 L 59 112 L 59 154 L 17 154 Z M 17 112 "/>
</clipPath>
<clipPath id="clip10">
  <path d="M 58.027344 132.859375 C 58.027344 121.589844 48.890625 112.449219 37.617188 112.449219 C 26.34375 112.449219 17.207031 121.589844 17.207031 132.859375 C 17.207031 144.132812 26.34375 153.269531 37.617188 153.269531 C 48.890625 153.269531 58.027344 144.132812 58.027344 132.859375 Z M 58.027344 132.859375 "/>
</clipPath>
<clipPath id="clip11">
  <rect x="0" y="0" width="3" height="3"/>
</clipPath>
<g id="surface11" clip-path="url(#clip11)">
<path style=" stroke:none;fill-rule:nonzero;fill:rgb(100%,0%,0%);fill-opacity:1;" d="M 0 0 L 1.5 0 L 1.5 3 L 0 3 Z M 0 0 "/>
</g>
<pattern id="pattern2" patternUnits="userSpaceOnUse" width="3" height="3" patternTransform="matrix(0.944947,0,0,-0.944947,0,170.477)">
<use xlink:href="#surface11"/>
</pattern>
<clipPath id="clip12">
  <path d="M 0 89 L 81 89 L 81 170.476562 L 0 170.476562 Z M 0 89 "/>
</clipPath>
<clipPath id="clip13">
  <path d="M 81 34 L 123 34 L 123 76 L 81 76 Z M 81 34 "/>
</clipPath>
<clipPath id="clip14">
  <path d="M 122.65625 54.625 C 122.65625 43.351562 113.519531 34.214844 102.246094 34.214844 C 90.976562 34.214844 81.835938 43.351562 81.835938 54.625 C 81.835938 65.894531 90.976562 75.035156 102.246094 75.035156 C 113.519531 75.035156 122.65625 65.894531 122.65625 54.625 Z M 122.65625 54.625 "/>
</clipPath>
<clipPath id="clip15">
  <rect x="0" y="0" width="3" height="3"/>
</clipPath>
<g id="surface14" clip-path="url(#clip15)">
<path style=" stroke:none;fill-rule:nonzero;fill:rgb(100%,0%,0%);fill-opacity:1;" d="M 0 0 L 1.5 0 L 1.5 3 L 0 3 Z M 0 0 "/>
</g>
<pattern id="pattern3" patternUnits="userSpaceOnUse" width="3" height="3" patternTransform="matrix(0.944947,0,0,-0.944947,0,170.477)">
<use xlink:href="#surface14"/>
</pattern>
<clipPath id="clip16">
  <path d="M 47 95 L 89 95 L 89 137 L 47 137 Z M 47 95 "/>
</clipPath>
<clipPath id="clip17">
  <path d="M 88.640625 115.851562 C 88.640625 104.578125 79.503906 95.441406 68.230469 95.441406 C 56.957031 95.441406 47.820312 104.578125 47.820312 115.851562 C 47.820312 127.125 56.957031 136.261719 68.230469 136.261719 C 79.503906 136.261719 88.640625 127.125 88.640625 115.851562 Z M 88.640625 115.851562 "/>
</clipPath>
<clipPath id="clip18">
  <rect x="0" y="0" width="3" height="3"/>
</clipPath>
<g id="surface17" clip-path="url(#clip18)">
<path style=" stroke:none;fill-rule:nonzero;fill:rgb(100%,0%,0%);fill-opacity:1;" d="M 0 0 L 1.5 0 L 1.5 3 L 0 3 Z M 0 0 "/>
</g>
<pattern id="pattern4" patternUnits="userSpaceOnUse" width="3" height="3" patternTransform="matrix(0.944947,0,0,-0.944947,0,170.477)">
<use xlink:href="#surface17"/>
</pattern>
<clipPath id="clip19">
  <path d="M 14 14 L 22 14 L 22 22 L 14 22 Z M 14 14 "/>
</clipPath>
<clipPath id="clip20">
  <path d="M 21.292969 17.890625 C 21.292969 16.011719 19.769531 14.492188 17.890625 14.492188 C 16.011719 14.492188 14.492188 16.011719 14.492188 17.890625 C 14.492188 19.769531 16.011719 21.292969 17.890625 21.292969 C 19.769531 21.292969 21.292969 19.769531 21.292969 17.890625 Z M 21.292969 17.890625 "/>
</clipPath>
<clipPath id="clip21">
  <rect x="0" y="0" width="3" height="3"/>
</clipPath>
<g id="surface20" clip-path="url(#clip21)">
<path style=" stroke:none;fill-rule:nonzero;fill:rgb(100%,0%,0%);fill-opacity:1;" d="M 0 0 L 1 0 L 1 3 L 0 3 Z M 0 0 "/>
</g>
<pattern id="pattern5" patternUnits="userSpaceOnUse" width="3" height="3" patternTransform="matrix(0.70864,0,0,-0.944947,0,170.477)">
<use xlink:href="#surface20"/>
</pattern>
<clipPath id="clip22">
  <path d="M 22 6 L 30 6 L 30 14 L 22 14 Z M 22 6 "/>
</clipPath>
<clipPath id="clip23">
  <path d="M 29.230469 9.953125 C 29.230469 8.078125 27.707031 6.554688 25.828125 6.554688 C 23.949219 6.554688 22.425781 8.078125 22.425781 9.953125 C 22.425781 11.832031 23.949219 13.355469 25.828125 13.355469 C 27.707031 13.355469 29.230469 11.832031 29.230469 9.953125 Z M 29.230469 9.953125 "/>
</clipPath>
<clipPath id="clip24">
  <rect x="0" y="0" width="3" height="3"/>
</clipPath>
<g id="surface23" clip-path="url(#clip24)">
<path style=" stroke:none;fill-rule:nonzero;fill:rgb(100%,0%,0%);fill-opacity:1;" d="M 0 0 L 1 0 L 1 3 L 0 3 Z M 0 0 "/>
</g>
<pattern id="pattern6" patternUnits="userSpaceOnUse" width="3" height="3" patternTransform="matrix(0.70864,0,0,-0.944947,0,170.477)">
<use xlink:href="#surface23"/>
</pattern>
<clipPath id="clip25">
  <path d="M 6 22 L 14 22 L 14 30 L 6 30 Z M 6 22 "/>
</clipPath>
<clipPath id="clip26">
  <path d="M 13.355469 25.828125 C 13.355469 23.949219 11.832031 22.425781 9.953125 22.425781 C 8.078125 22.425781 6.554688 23.949219 6.554688 25.828125 C 6.554688 27.707031 8.078125 29.230469 9.953125 29.230469 C 11.832031 29.230469 13.355469 27.707031 13.355469 25.828125 Z M 13.355469 25.828125 "/>
</clipPath>
<clipPath id="clip27">
  <rect x="0" y="0" width="3" height="3"/>
</clipPath>
<g id="surface26" clip-path="url(#clip27)">
<path style=" stroke:none;fill-rule:nonzero;fill:rgb(100%,0%,0%);fill-opacity:1;" d="M 0 0 L 1 0 L 1 3 L 0 3 Z M 0 0 "/>
</g>
<pattern id="pattern7" patternUnits="userSpaceOnUse" width="3" height="3" patternTransform="matrix(0.70864,0,0,-0.944947,0,170.477)">
<use xlink:href="#surface26"/>
</pattern>
<clipPath id="clip28">
  <path d="M 17 9 L 25 9 L 25 17 L 17 17 Z M 17 9 "/>
</clipPath>
<clipPath id="clip29">
  <path d="M 24.128906 12.789062 C 24.128906 10.910156 22.605469 9.386719 20.726562 9.386719 C 18.847656 9.386719 17.324219 10.910156 17.324219 12.789062 C 17.324219 14.667969 18.847656 16.191406 20.726562 16.191406 C 22.605469 16.191406 24.128906 14.667969 24.128906 12.789062 Z M 24.128906 12.789062 "/>
</clipPath>
<clipPath id="clip30">
  <rect x="0" y="0" width="3" height="3"/>
</clipPath>
<g id="surface29" clip-path="url(#clip30)">
<path style=" stroke:none;fill-rule:nonzero;fill:rgb(100%,0%,0%);fill-opacity:1;" d="M 0 0 L 1 0 L 1 3 L 0 3 Z M 0 0 "/>
</g>
<pattern id="pattern8" patternUnits="userSpaceOnUse" width="3" height="3" patternTransform="matrix(0.70864,0,0,-0.944947,0,170.477)">
<use xlink:href="#surface29"/>
</pattern>
<clipPath id="clip31">
  <path d="M 11 19 L 19 19 L 19 27 L 11 27 Z M 11 19 "/>
</clipPath>
<clipPath id="clip32">
  <path d="M 18.457031 22.996094 C 18.457031 21.117188 16.9375 19.59375 15.058594 19.59375 C 13.179688 19.59375 11.65625 21.117188 11.65625 22.996094 C 11.65625 24.871094 13.179688 26.394531 15.058594 26.394531 C 16.9375 26.394531 18.457031 24.871094 18.457031 22.996094 Z M 18.457031 22.996094 "/>
</clipPath>
<clipPath id="clip33">
  <rect x="0" y="0" width="3" height="3"/>
</clipPath>
<g id="surface32" clip-path="url(#clip33)">
<path style=" stroke:none;fill-rule:nonzero;fill:rgb(100%,0%,0%);fill-opacity:1;" d="M 0 0 L 1 0 L 1 3 L 0 3 Z M 0 0 "/>
</g>
<pattern id="pattern9" patternUnits="userSpaceOnUse" width="3" height="3" patternTransform="matrix(0.70864,0,0,-0.944947,0,170.477)">
<use xlink:href="#surface32"/>
</pattern>
<clipPath id="clip34">
  <path d="M 149 149 L 156 149 L 156 156 L 149 156 Z M 149 149 "/>
</clipPath>
<clipPath id="clip35">
  <path d="M 155.988281 152.585938 C 155.988281 150.707031 154.464844 149.183594 152.585938 149.183594 C 150.707031 149.183594 149.183594 150.707031 149.183594 152.585938 C 149.183594 154.464844 150.707031 155.988281 152.585938 155.988281 C 154.464844 155.988281 155.988281 154.464844 155.988281 152.585938 Z M 155.988281 152.585938 "/>
</clipPath>
<clipPath id="clip36">
  <rect x="0" y="0" width="3" height="3"/>
</clipPath>
<g id="surface35" clip-path="url(#clip36)">
<path style=" stroke:none;fill-rule:nonzero;fill:rgb(100%,0%,0%);fill-opacity:1;" d="M 0 0 L 1 0 L 1 3 L 0 3 Z M 0 0 "/>
</g>
<pattern id="pattern10" patternUnits="userSpaceOnUse" width="3" height="3" patternTransform="matrix(0.70864,0,0,-0.944947,0,170.477)">
<use xlink:href="#surface35"/>
</pattern>
<clipPath id="clip37">
  <path d="M 132 132 L 170.476562 132 L 170.476562 170.476562 L 132 170.476562 Z M 132 132 "/>
</clipPath>
<clipPath id="clip38">
  <path d="M 157 141 L 164 141 L 164 149 L 157 149 Z M 157 141 "/>
</clipPath>
<clipPath id="clip39">
  <path d="M 163.921875 144.648438 C 163.921875 142.769531 162.402344 141.246094 160.523438 141.246094 C 158.644531 141.246094 157.121094 142.769531 157.121094 144.648438 C 157.121094 146.527344 158.644531 148.050781 160.523438 148.050781 C 162.402344 148.050781 163.921875 146.527344 163.921875 144.648438 Z M 163.921875 144.648438 "/>
</clipPath>
<clipPath id="clip40">
  <rect x="0" y="0" width="3" height="3"/>
</clipPath>
<g id="surface38" clip-path="url(#clip40)">
<path style=" stroke:none;fill-rule:nonzero;fill:rgb(100%,0%,0%);fill-opacity:1;" d="M 0 0 L 1 0 L 1 3 L 0 3 Z M 0 0 "/>
</g>
<pattern id="pattern11" patternUnits="userSpaceOnUse" width="3" height="3" patternTransform="matrix(0.70864,0,0,-0.944947,0,170.477)">
<use xlink:href="#surface38"/>
</pattern>
<clipPath id="clip41">
  <path d="M 140 124 L 170.476562 124 L 170.476562 165 L 140 165 Z M 140 124 "/>
</clipPath>
<clipPath id="clip42">
  <path d="M 141 157 L 149 157 L 149 164 L 141 164 Z M 141 157 "/>
</clipPath>
<clipPath id="clip43">
  <path d="M 148.050781 160.523438 C 148.050781 158.644531 146.527344 157.121094 144.648438 157.121094 C 142.769531 157.121094 141.246094 158.644531 141.246094 160.523438 C 141.246094 162.402344 142.769531 163.921875 144.648438 163.921875 C 146.527344 163.921875 148.050781 162.402344 148.050781 160.523438 Z M 148.050781 160.523438 "/>
</clipPath>
<clipPath id="clip44">
  <rect x="0" y="0" width="3" height="3"/>
</clipPath>
<g id="surface41" clip-path="url(#clip44)">
<path style=" stroke:none;fill-rule:nonzero;fill:rgb(100%,0%,0%);fill-opacity:1;" d="M 0 0 L 1 0 L 1 3 L 0 3 Z M 0 0 "/>
</g>
<pattern id="pattern12" patternUnits="userSpaceOnUse" width="3" height="3" patternTransform="matrix(0.70864,0,0,-0.944947,0,170.477)">
<use xlink:href="#surface41"/>
</pattern>
<clipPath id="clip45">
  <path d="M 124 140 L 165 140 L 165 170.476562 L 124 170.476562 Z M 124 140 "/>
</clipPath>
<clipPath id="clip46">
  <path d="M 152 144 L 159 144 L 159 151 L 152 151 Z M 152 144 "/>
</clipPath>
<clipPath id="clip47">
  <path d="M 158.820312 147.484375 C 158.820312 145.605469 157.296875 144.082031 155.417969 144.082031 C 153.539062 144.082031 152.019531 145.605469 152.019531 147.484375 C 152.019531 149.363281 153.539062 150.882812 155.417969 150.882812 C 157.296875 150.882812 158.820312 149.363281 158.820312 147.484375 Z M 158.820312 147.484375 "/>
</clipPath>
<clipPath id="clip48">
  <rect x="0" y="0" width="3" height="3"/>
</clipPath>
<g id="surface44" clip-path="url(#clip48)">
<path style=" stroke:none;fill-rule:nonzero;fill:rgb(100%,0%,0%);fill-opacity:1;" d="M 0 0 L 1 0 L 1 3 L 0 3 Z M 0 0 "/>
</g>
<pattern id="pattern13" patternUnits="userSpaceOnUse" width="3" height="3" patternTransform="matrix(0.70864,0,0,-0.944947,0,170.477)">
<use xlink:href="#surface44"/>
</pattern>
<clipPath id="clip49">
  <path d="M 135 127 L 170.476562 127 L 170.476562 168 L 135 168 Z M 135 127 "/>
</clipPath>
<clipPath id="clip50">
  <path d="M 146 154 L 154 154 L 154 162 L 146 162 Z M 146 154 "/>
</clipPath>
<clipPath id="clip51">
  <path d="M 153.152344 157.6875 C 153.152344 155.808594 151.628906 154.285156 149.75 154.285156 C 147.871094 154.285156 146.347656 155.808594 146.347656 157.6875 C 146.347656 159.566406 147.871094 161.089844 149.75 161.089844 C 151.628906 161.089844 153.152344 159.566406 153.152344 157.6875 Z M 153.152344 157.6875 "/>
</clipPath>
<clipPath id="clip52">
  <rect x="0" y="0" width="3" height="3"/>
</clipPath>
<g id="surface47" clip-path="url(#clip52)">
<path style=" stroke:none;fill-rule:nonzero;fill:rgb(100%,0%,0%);fill-opacity:1;" d="M 0 0 L 1 0 L 1 3 L 0 3 Z M 0 0 "/>
</g>
<pattern id="pattern14" patternUnits="userSpaceOnUse" width="3" height="3" patternTransform="matrix(0.70864,0,0,-0.944947,0,170.477)">
<use xlink:href="#surface47"/>
</pattern>
<clipPath id="clip53">
  <path d="M 129 137 L 170.476562 137 L 170.476562 170.476562 L 129 170.476562 Z M 129 137 "/>
</clipPath>
</defs>
<g id="surface1">
<g clip-path="url(#clip1)" clip-rule="nonzero">
<path style=" stroke:none;fill-rule:nonzero;fill:rgb(100%,100%,100%);fill-opacity:1;" d="M 0.199219 166.292969 L 0.199219 4.183594 C 0.199219 1.980469 1.984375 0.199219 4.183594 0.199219 L 166.292969 0.199219 C 168.496094 0.199219 170.277344 1.980469 170.277344 4.183594 L 170.277344 166.292969 C 170.277344 168.492188 168.496094 170.277344 166.292969 170.277344 L 4.183594 170.277344 C 1.984375 170.277344 0.199219 168.492188 0.199219 166.292969 Z M 0.199219 166.292969 "/>
</g>
<g clip-path="url(#clip2)" clip-rule="nonzero">
<g clip-path="url(#clip3)" clip-rule="nonzero">
<path style=" stroke:none;fill-rule:nonzero;fill:url(#pattern0);" d="M 64.828125 105.648438 L 105.648438 105.648438 L 105.648438 64.828125 L 64.828125 64.828125 Z M 64.828125 105.648438 "/>
</g>
</g>
<path style="fill:none;stroke-width:1.59404;stroke-linecap:butt;stroke-linejoin:miter;stroke:rgb(100%,0%,0%);stroke-opacity:1;stroke-miterlimit:10;" d="M 20.409437 -0.00028125 C 20.409437 11.273156 11.272719 20.409875 -0.00071875 20.409875 C -11.27025 20.409875 -20.410875 11.273156 -20.410875 -0.00028125 C -20.410875 -11.273719 -11.27025 -20.410438 -0.00071875 -20.410438 C 11.272719 -20.410438 20.409437 -11.273719 20.409437 -0.00028125 Z M 20.409437 -0.00028125 " transform="matrix(1,0,0,-1,85.239,85.238)"/>
<g clip-path="url(#clip5)" clip-rule="nonzero">
<g clip-path="url(#clip6)" clip-rule="nonzero">
<path style=" stroke:none;fill-rule:nonzero;fill:url(#pattern1);" d="M 112.453125 58.027344 L 153.273438 58.027344 L 153.273438 17.207031 L 112.453125 17.207031 Z M 112.453125 58.027344 "/>
</g>
</g>
<g clip-path="url(#clip8)" clip-rule="nonzero">
<path style="fill:none;stroke-width:1.59404;stroke-linecap:butt;stroke-linejoin:miter;stroke:rgb(100%,0%,0%);stroke-opacity:1;stroke-miterlimit:10;" d="M 68.030531 47.620812 C 68.030531 58.89425 58.893812 68.030969 47.620375 68.030969 C 36.350844 68.030969 27.214125 58.89425 27.214125 47.620812 C 27.214125 36.351281 36.350844 27.210656 47.620375 27.210656 C 58.893812 27.210656 68.030531 36.351281 68.030531 47.620812 Z M 68.030531 47.620812 " transform="matrix(1,0,0,-1,85.239,85.238)"/>
</g>
<g clip-path="url(#clip9)" clip-rule="nonzero">
<g clip-path="url(#clip10)" clip-rule="nonzero">
<path style=" stroke:none;fill-rule:nonzero;fill:url(#pattern2);" d="M 17.207031 153.269531 L 58.027344 153.269531 L 58.027344 112.449219 L 17.207031 112.449219 Z M 17.207031 153.269531 "/>
</g>
</g>
<g clip-path="url(#clip12)" clip-rule="nonzero">
<path style="fill:none;stroke-width:1.59404;stroke-linecap:butt;stroke-linejoin:miter;stroke:rgb(100%,0%,0%);stroke-opacity:1;stroke-miterlimit:10;" d="M -27.211656 -47.621375 C -27.211656 -36.351844 -36.348375 -27.211219 -47.621813 -27.211219 C -58.89525 -27.211219 -68.031969 -36.351844 -68.031969 -47.621375 C -68.031969 -58.894813 -58.89525 -68.031531 -47.621813 -68.031531 C -36.348375 -68.031531 -27.211656 -58.894813 -27.211656 -47.621375 Z M -27.211656 -47.621375 " transform="matrix(1,0,0,-1,85.239,85.238)"/>
</g>
<g clip-path="url(#clip13)" clip-rule="nonzero">
<g clip-path="url(#clip14)" clip-rule="nonzero">
<path style=" stroke:none;fill-rule:nonzero;fill:url(#pattern3);" d="M 81.835938 75.035156 L 122.65625 75.035156 L 122.65625 34.214844 L 81.835938 34.214844 Z M 81.835938 75.035156 "/>
</g>
</g>
<path style="fill:none;stroke-width:1.59404;stroke-linecap:butt;stroke-linejoin:miter;stroke:rgb(100%,0%,0%);stroke-opacity:1;stroke-miterlimit:10;" d="M 37.41725 30.613 C 37.41725 41.886437 28.280531 51.023156 17.007094 51.023156 C 5.737562 51.023156 -3.403063 41.886437 -3.403063 30.613 C -3.403063 19.343469 5.737562 10.202844 17.007094 10.202844 C 28.280531 10.202844 37.41725 19.343469 37.41725 30.613 Z M 37.41725 30.613 " transform="matrix(1,0,0,-1,85.239,85.238)"/>
<g clip-path="url(#clip16)" clip-rule="nonzero">
<g clip-path="url(#clip17)" clip-rule="nonzero">
<path style=" stroke:none;fill-rule:nonzero;fill:url(#pattern4);" d="M 47.820312 136.261719 L 88.640625 136.261719 L 88.640625 95.441406 L 47.820312 95.441406 Z M 47.820312 136.261719 "/>
</g>
</g>
<path style="fill:none;stroke-width:1.59404;stroke-linecap:butt;stroke-linejoin:miter;stroke:rgb(100%,0%,0%);stroke-opacity:1;stroke-miterlimit:10;" d="M 3.401625 -30.613563 C 3.401625 -19.340125 -5.735094 -10.203406 -17.008531 -10.203406 C -28.281969 -10.203406 -37.418688 -19.340125 -37.418688 -30.613563 C -37.418688 -41.887 -28.281969 -51.023719 -17.008531 -51.023719 C -5.735094 -51.023719 3.401625 -41.887 3.401625 -30.613563 Z M 3.401625 -30.613563 " transform="matrix(1,0,0,-1,85.239,85.238)"/>
<path style=" stroke:none;fill-rule:nonzero;fill:rgb(100%,100%,100%);fill-opacity:1;" d="M 3.71875 28.078125 L 3.71875 7.703125 C 3.71875 5.503906 5.503906 3.71875 7.703125 3.71875 L 28.078125 3.71875 C 30.28125 3.71875 32.066406 5.503906 32.066406 7.703125 L 32.066406 28.078125 C 32.066406 30.28125 30.28125 32.066406 28.078125 32.066406 L 7.703125 32.066406 C 5.503906 32.066406 3.71875 30.28125 3.71875 28.078125 Z M 3.71875 28.078125 "/>
<g clip-path="url(#clip19)" clip-rule="nonzero">
<g clip-path="url(#clip20)" clip-rule="nonzero">
<path style=" stroke:none;fill-rule:nonzero;fill:url(#pattern5);" d="M 14.492188 21.292969 L 21.296875 21.292969 L 21.296875 14.488281 L 14.492188 14.488281 Z M 14.492188 21.292969 "/>
</g>
</g>
<path style="fill:none;stroke-width:1.19553;stroke-linecap:butt;stroke-linejoin:miter;stroke:rgb(100%,0%,0%);stroke-opacity:1;stroke-miterlimit:10;" d="M 3.400969 0.001375 C 3.400969 1.880281 1.877531 3.399812 -0.001375 3.399812 C -1.880281 3.399812 -3.399813 1.880281 -3.399813 0.001375 C -3.399813 -1.877531 -1.880281 -3.400969 -0.001375 -3.400969 C 1.877531 -3.400969 3.400969 -1.877531 3.400969 0.001375 Z M 3.400969 0.001375 " transform="matrix(1,0,0,-1,17.892,17.892)"/>
<g clip-path="url(#clip22)" clip-rule="nonzero">
<g clip-path="url(#clip23)" clip-rule="nonzero">
<path style=" stroke:none;fill-rule:nonzero;fill:url(#pattern6);" d="M 22.425781 13.355469 L 29.230469 13.355469 L 29.230469 6.550781 L 22.425781 6.550781 Z M 22.425781 13.355469 "/>
</g>
</g>
<path style="fill:none;stroke-width:1.19553;stroke-linecap:butt;stroke-linejoin:miter;stroke:rgb(100%,0%,0%);stroke-opacity:1;stroke-miterlimit:10;" d="M 11.338469 7.938875 C 11.338469 9.813875 9.815031 11.337312 7.936125 11.337312 C 6.057219 11.337312 4.533781 9.813875 4.533781 7.938875 C 4.533781 6.059969 6.057219 4.536531 7.936125 4.536531 C 9.815031 4.536531 11.338469 6.059969 11.338469 7.938875 Z M 11.338469 7.938875 " transform="matrix(1,0,0,-1,17.892,17.892)"/>
<g clip-path="url(#clip25)" clip-rule="nonzero">
<g clip-path="url(#clip26)" clip-rule="nonzero">
<path style=" stroke:none;fill-rule:nonzero;fill:url(#pattern7);" d="M 6.554688 29.230469 L 13.359375 29.230469 L 13.359375 22.425781 L 6.554688 22.425781 Z M 6.554688 29.230469 "/>
</g>
</g>
<path style="fill:none;stroke-width:1.19553;stroke-linecap:butt;stroke-linejoin:miter;stroke:rgb(100%,0%,0%);stroke-opacity:1;stroke-miterlimit:10;" d="M -4.536531 -7.936125 C -4.536531 -6.057219 -6.059969 -4.533781 -7.938875 -4.533781 C -9.813875 -4.533781 -11.337313 -6.057219 -11.337313 -7.936125 C -11.337313 -9.815031 -9.813875 -11.338469 -7.938875 -11.338469 C -6.059969 -11.338469 -4.536531 -9.815031 -4.536531 -7.936125 Z M -4.536531 -7.936125 " transform="matrix(1,0,0,-1,17.892,17.892)"/>
<g clip-path="url(#clip28)" clip-rule="nonzero">
<g clip-path="url(#clip29)" clip-rule="nonzero">
<path style=" stroke:none;fill-rule:nonzero;fill:url(#pattern8);" d="M 17.324219 16.191406 L 24.128906 16.191406 L 24.128906 9.386719 L 17.324219 9.386719 Z M 17.324219 16.191406 "/>
</g>
</g>
<path style="fill:none;stroke-width:1.19553;stroke-linecap:butt;stroke-linejoin:miter;stroke:rgb(100%,0%,0%);stroke-opacity:1;stroke-miterlimit:10;" d="M 6.236906 5.102937 C 6.236906 6.981844 4.713469 8.505281 2.834562 8.505281 C 0.955656 8.505281 -0.567781 6.981844 -0.567781 5.102937 C -0.567781 3.224031 0.955656 1.700594 2.834562 1.700594 C 4.713469 1.700594 6.236906 3.224031 6.236906 5.102937 Z M 6.236906 5.102937 " transform="matrix(1,0,0,-1,17.892,17.892)"/>
<g clip-path="url(#clip31)" clip-rule="nonzero">
<g clip-path="url(#clip32)" clip-rule="nonzero">
<path style=" stroke:none;fill-rule:nonzero;fill:url(#pattern9);" d="M 11.65625 26.394531 L 18.460938 26.394531 L 18.460938 19.589844 L 11.65625 19.589844 Z M 11.65625 26.394531 "/>
</g>
</g>
<path style="fill:none;stroke-width:1.19553;stroke-linecap:butt;stroke-linejoin:miter;stroke:rgb(100%,0%,0%);stroke-opacity:1;stroke-miterlimit:10;" d="M 0.565031 -5.104094 C 0.565031 -3.225188 -0.9545 -1.70175 -2.833406 -1.70175 C -4.712313 -1.70175 -6.23575 -3.225188 -6.23575 -5.104094 C -6.23575 -6.979094 -4.712313 -8.502531 -2.833406 -8.502531 C -0.9545 -8.502531 0.565031 -6.979094 0.565031 -5.104094 Z M 0.565031 -5.104094 " transform="matrix(1,0,0,-1,17.892,17.892)"/>
<path style=" stroke:none;fill-rule:nonzero;fill:rgb(100%,100%,100%);fill-opacity:1;" d="M 138.410156 162.773438 L 138.410156 142.398438 C 138.410156 140.195312 140.195312 138.410156 142.398438 138.410156 L 162.773438 138.410156 C 164.972656 138.410156 166.757812 140.195312 166.757812 142.398438 L 166.757812 162.773438 C 166.757812 164.972656 164.972656 166.757812 162.773438 166.757812 L 142.398438 166.757812 C 140.195312 166.757812 138.410156 164.972656 138.410156 162.773438 Z M 138.410156 162.773438 "/>
<g clip-path="url(#clip34)" clip-rule="nonzero">
<g clip-path="url(#clip35)" clip-rule="nonzero">
<path style=" stroke:none;fill-rule:nonzero;fill:url(#pattern10);" d="M 149.183594 155.988281 L 155.988281 155.988281 L 155.988281 149.183594 L 149.183594 149.183594 Z M 149.183594 155.988281 "/>
</g>
</g>
<g clip-path="url(#clip37)" clip-rule="nonzero">
<path style="fill:none;stroke-width:1.19553;stroke-linecap:butt;stroke-linejoin:miter;stroke:rgb(100%,0%,0%);stroke-opacity:1;stroke-miterlimit:10;" d="M 3.403281 -0.0009375 C 3.403281 1.877969 1.879844 3.401406 0.0009375 3.401406 C -1.877969 3.401406 -3.401406 1.877969 -3.401406 -0.0009375 C -3.401406 -1.879844 -1.877969 -3.403281 0.0009375 -3.403281 C 1.879844 -3.403281 3.403281 -1.879844 3.403281 -0.0009375 Z M 3.403281 -0.0009375 " transform="matrix(1,0,0,-1,152.585,152.585)"/>
</g>
<g clip-path="url(#clip38)" clip-rule="nonzero">
<g clip-path="url(#clip39)" clip-rule="nonzero">
<path style=" stroke:none;fill-rule:nonzero;fill:url(#pattern11);" d="M 157.121094 148.050781 L 163.925781 148.050781 L 163.925781 141.246094 L 157.121094 141.246094 Z M 157.121094 148.050781 "/>
</g>
</g>
<g clip-path="url(#clip41)" clip-rule="nonzero">
<path style="fill:none;stroke-width:1.19553;stroke-linecap:butt;stroke-linejoin:miter;stroke:rgb(100%,0%,0%);stroke-opacity:1;stroke-miterlimit:10;" d="M 11.336875 7.936562 C 11.336875 9.815469 9.817344 11.338906 7.938437 11.338906 C 6.059531 11.338906 4.536094 9.815469 4.536094 7.936562 C 4.536094 6.057656 6.059531 4.534219 7.938437 4.534219 C 9.817344 4.534219 11.336875 6.057656 11.336875 7.936562 Z M 11.336875 7.936562 " transform="matrix(1,0,0,-1,152.585,152.585)"/>
</g>
<g clip-path="url(#clip42)" clip-rule="nonzero">
<g clip-path="url(#clip43)" clip-rule="nonzero">
<path style=" stroke:none;fill-rule:nonzero;fill:url(#pattern12);" d="M 141.246094 163.921875 L 148.050781 163.921875 L 148.050781 157.117188 L 141.246094 157.117188 Z M 141.246094 163.921875 "/>
</g>
</g>
<g clip-path="url(#clip45)" clip-rule="nonzero">
<path style="fill:none;stroke-width:1.19553;stroke-linecap:butt;stroke-linejoin:miter;stroke:rgb(100%,0%,0%);stroke-opacity:1;stroke-miterlimit:10;" d="M -4.534219 -7.938438 C -4.534219 -6.059531 -6.057656 -4.536094 -7.936563 -4.536094 C -9.815469 -4.536094 -11.338906 -6.059531 -11.338906 -7.938438 C -11.338906 -9.817344 -9.815469 -11.336875 -7.936563 -11.336875 C -6.057656 -11.336875 -4.534219 -9.817344 -4.534219 -7.938438 Z M -4.534219 -7.938438 " transform="matrix(1,0,0,-1,152.585,152.585)"/>
</g>
<g clip-path="url(#clip46)" clip-rule="nonzero">
<g clip-path="url(#clip47)" clip-rule="nonzero">
<path style=" stroke:none;fill-rule:nonzero;fill:url(#pattern13);" d="M 152.019531 150.882812 L 158.824219 150.882812 L 158.824219 144.078125 L 152.019531 144.078125 Z M 152.019531 150.882812 "/>
</g>
</g>
<g clip-path="url(#clip49)" clip-rule="nonzero">
<path style="fill:none;stroke-width:1.19553;stroke-linecap:butt;stroke-linejoin:miter;stroke:rgb(100%,0%,0%);stroke-opacity:1;stroke-miterlimit:10;" d="M 6.235312 5.100625 C 6.235312 6.979531 4.711875 8.502969 2.832969 8.502969 C 0.954062 8.502969 -0.565469 6.979531 -0.565469 5.100625 C -0.565469 3.221719 0.954062 1.702187 2.832969 1.702187 C 4.711875 1.702187 6.235312 3.221719 6.235312 5.100625 Z M 6.235312 5.100625 " transform="matrix(1,0,0,-1,152.585,152.585)"/>
</g>
<g clip-path="url(#clip50)" clip-rule="nonzero">
<g clip-path="url(#clip51)" clip-rule="nonzero">
<path style=" stroke:none;fill-rule:nonzero;fill:url(#pattern14);" d="M 146.347656 161.089844 L 153.152344 161.089844 L 153.152344 154.285156 L 146.347656 154.285156 Z M 146.347656 161.089844 "/>
</g>
</g>
<g clip-path="url(#clip53)" clip-rule="nonzero">
<path style="fill:none;stroke-width:1.19553;stroke-linecap:butt;stroke-linejoin:miter;stroke:rgb(100%,0%,0%);stroke-opacity:1;stroke-miterlimit:10;" d="M 0.567344 -5.1025 C 0.567344 -3.223594 -0.956094 -1.700156 -2.835 -1.700156 C -4.713906 -1.700156 -6.237344 -3.223594 -6.237344 -5.1025 C -6.237344 -6.981406 -4.713906 -8.504844 -2.835 -8.504844 C -0.956094 -8.504844 0.567344 -6.981406 0.567344 -5.1025 Z M 0.567344 -5.1025 " transform="matrix(1,0,0,-1,152.585,152.585)"/>
</g>
</g>
</svg>
