<?xml version="1.0" encoding="UTF-8"?>
<svg xmlns="http://www.w3.org/2000/svg" xmlns:xlink="http://www.w3.org/1999/xlink" width="170.477pt" height="170.477pt" viewBox="0 0 170.477 170.477" version="1.1">
<defs>
<clipPath id="clip1">
  <path d="M 0 0 L 170.476562 0 L 170.476562 170.476562 L 0 170.476562 Z M 0 0 "/>
</clipPath>
<clipPath id="clip2">
  <path d="M 68.230469 68.230469 L 102.246094 68.230469 L 102.246094 102.246094 L 68.230469 102.246094 Z M 68.230469 68.230469 "/>
</clipPath>
<clipPath id="clip3">
  <rect x="0" y="0" width="3" height="3"/>
</clipPath>
<g id="surface5" clip-path="url(#clip3)">
<rect x="0" y="0" width="3" height="3" style="fill:rgb(100%,0%,0%);fill-opacity:1;stroke:none;"/>
</g>
<pattern id="pattern0" patternUnits="userSpaceOnUse" width="3" height="3" patternTransform="matrix(0.944947,0,0,-0.944947,0,170.477)">
<use xlink:href="#surface5"/>
</pattern>
<clipPath id="clip4">
  <path d="M 115.851562 20.609375 L 149.871094 20.609375 L 149.871094 54.625 L 115.851562 54.625 Z M 115.851562 20.609375 "/>
</clipPath>
<clipPath id="clip5">
  <rect x="0" y="0" width="3" height="3"/>
</clipPath>
<g id="surface8" clip-path="url(#clip5)">
<rect x="0" y="0" width="3" height="3" style="fill:rgb(100%,0%,0%);fill-opacity:1;stroke:none;"/>
</g>
<pattern id="pattern1" patternUnits="userSpaceOnUse" width="3" height="3" patternTransform="matrix(0.944947,0,0,-0.944947,0,170.477)">
<use xlink:href="#surface8"/>
</pattern>
<clipPath id="clip6">
  <path d="M 20.609375 115.851562 L 54.625 115.851562 L 54.625 149.867188 L 20.609375 149.867188 Z M 20.609375 115.851562 "/>
</clipPath>
<clipPath id="clip7">
  <rect x="0" y="0" width="3" height="3"/>
</clipPath>
<g id="surface11" clip-path="url(#clip7)">
<rect x="0" y="0" width="3" height="3" style="fill:rgb(100%,0%,0%);fill-opacity:1;stroke:none;"/>
</g>
<pattern id="pattern2" patternUnits="userSpaceOnUse" width="3" height="3" patternTransform="matrix(0.944947,0,0,-0.944947,0,170.477)">
<use xlink:href="#surface11"/>
</pattern>
<clipPath id="clip8">
  <path d="M 85.238281 37.617188 L 119.253906 37.617188 L 119.253906 71.632812 L 85.238281 71.632812 Z M 85.238281 37.617188 "/>
</clipPath>
<clipPath id="clip9">
  <rect x="0" y="0" width="3" height="3"/>
</clipPath>
<g id="surface14" clip-path="url(#clip9)">
<rect x="0" y="0" width="3" height="3" style="fill:rgb(100%,0%,0%);fill-opacity:1;stroke:none;"/>
</g>
<pattern id="pattern3" patternUnits="userSpaceOnUse" width="3" height="3" patternTransform="matrix(0.944947,0,0,-0.944947,0,170.477)">
<use xlink:href="#surface14"/>
</pattern>
<clipPath id="clip10">
  <path d="M 51.222656 98.84375 L 85.238281 98.84375 L 85.238281 132.859375 L 51.222656 132.859375 Z M 51.222656 98.84375 "/>
</clipPath>
<clipPath id="clip11">
  <rect x="0" y="0" width="3" height="3"/>
</clipPath>
<g id="surface17" clip-path="url(#clip11)">
<rect x="0" y="0" width="3" height="3" style="fill:rgb(100%,0%,0%);fill-opacity:1;stroke:none;"/>
</g>
<pattern id="pattern4" patternUnits="userSpaceOnUse" width="3" height="3" patternTransform="matrix(0.944947,0,0,-0.944947,0,170.477)">
<use xlink:href="#surface17"/>
</pattern>
<clipPath id="clip12">
  <path d="M 15.058594 15.058594 L 20.726562 15.058594 L 20.726562 20.726562 L 15.058594 20.726562 Z M 15.058594 15.058594 "/>
</clipPath>
<clipPath id="clip13">
  <rect x="0" y="0" width="3" height="3"/>
</clipPath>
<g id="surface20" clip-path="url(#clip13)">
<rect x="0" y="0" width="3" height="3" style="fill:rgb(100%,0%,0%);fill-opacity:1;stroke:none;"/>
</g>
<pattern id="pattern5" patternUnits="userSpaceOnUse" width="3" height="3" patternTransform="matrix(0.944947,0,0,-0.944947,0,170.477)">
<use xlink:href="#surface20"/>
</pattern>
<clipPath id="clip14">
  <path d="M 22.996094 7.121094 L 28.664062 7.121094 L 28.664062 12.789062 L 22.996094 12.789062 Z M 22.996094 7.121094 "/>
</clipPath>
<clipPath id="clip15">
  <rect x="0" y="0" width="3" height="3"/>
</clipPath>
<g id="surface23" clip-path="url(#clip15)">
<rect x="0" y="0" width="3" height="3" style="fill:rgb(100%,0%,0%);fill-opacity:1;stroke:none;"/>
</g>
<pattern id="pattern6" patternUnits="userSpaceOnUse" width="3" height="3" patternTransform="matrix(0.944947,0,0,-0.944947,0,170.477)">
<use xlink:href="#surface23"/>
</pattern>
<clipPath id="clip16">
  <path d="M 7.121094 22.996094 L 12.789062 22.996094 L 12.789062 28.664062 L 7.121094 28.664062 Z M 7.121094 22.996094 "/>
</clipPath>
<clipPath id="clip17">
  <rect x="0" y="0" width="3" height="3"/>
</clipPath>
<g id="surface26" clip-path="url(#clip17)">
<rect x="0" y="0" width="3" height="3" style="fill:rgb(100%,0%,0%);fill-opacity:1;stroke:none;"/>
</g>
<pattern id="pattern7" patternUnits="userSpaceOnUse" width="3" height="3" patternTransform="matrix(0.944947,0,0,-0.944947,0,170.477)">
<use xlink:href="#surface26"/>
</pattern>
<clipPath id="clip18">
  <path d="M 17.890625 9.957031 L 23.5625 9.957031 L 23.5625 15.625 L 17.890625 15.625 Z M 17.890625 9.957031 "/>
</clipPath>
<clipPath id="clip19">
  <rect x="0" y="0" width="3" height="3"/>
</clipPath>
<g id="surface29" clip-path="url(#clip19)">
<rect x="0" y="0" width="3" height="3" style="fill:rgb(100%,0%,0%);fill-opacity:1;stroke:none;"/>
</g>
<pattern id="pattern8" patternUnits="userSpaceOnUse" width="3" height="3" patternTransform="matrix(0.944947,0,0,-0.944947,0,170.477)">
<use xlink:href="#surface29"/>
</pattern>
<clipPath id="clip20">
  <path d="M 12.222656 20.160156 L 17.890625 20.160156 L 17.890625 25.828125 L 12.222656 25.828125 Z M 12.222656 20.160156 "/>
</clipPath>
<clipPath id="clip21">
  <rect x="0" y="0" width="3" height="3"/>
</clipPath>
<g id="surface32" clip-path="url(#clip21)">
<rect x="0" y="0" width="3" height="3" style="fill:rgb(100%,0%,0%);fill-opacity:1;stroke:none;"/>
</g>
<pattern id="pattern9" patternUnits="userSpaceOnUse" width="3" height="3" patternTransform="matrix(0.944947,0,0,-0.944947,0,170.477)">
<use xlink:href="#surface32"/>
</pattern>
<clipPath id="clip22">
  <path d="M 149.75 149.75 L 155.417969 149.75 L 155.417969 155.417969 L 149.75 155.417969 Z M 149.75 149.75 "/>
</clipPath>
<clipPath id="clip23">
  <rect x="0" y="0" width="3" height="3"/>
</clipPath>
<g id="surface35" clip-path="url(#clip23)">
<rect x="0" y="0" width="3" height="3" style="fill:rgb(100%,0%,0%);fill-opacity:1;stroke:none;"/>
</g>
<pattern id="pattern10" patternUnits="userSpaceOnUse" width="3" height="3" patternTransform="matrix(0.944947,0,0,-0.944947,0,170.477)">
<use xlink:href="#surface35"/>
</pattern>
<clipPath id="clip24">
  <path d="M 157.6875 141.8125 L 163.355469 141.8125 L 163.355469 147.484375 L 157.6875 147.484375 Z M 157.6875 141.8125 "/>
</clipPath>
<clipPath id="clip25">
  <rect x="0" y="0" width="3" height="3"/>
</clipPath>
<g id="surface38" clip-path="url(#clip25)">
<rect x="0" y="0" width="3" height="3" style="fill:rgb(100%,0%,0%);fill-opacity:1;stroke:none;"/>
</g>
<pattern id="pattern11" patternUnits="userSpaceOnUse" width="3" height="3" patternTransform="matrix(0.944947,0,0,-0.944947,0,170.477)">
<use xlink:href="#surface38"/>
</pattern>
<clipPath id="clip26">
  <path d="M 141.8125 157.6875 L 147.484375 157.6875 L 147.484375 163.355469 L 141.8125 163.355469 Z M 141.8125 157.6875 "/>
</clipPath>
<clipPath id="clip27">
  <rect x="0" y="0" width="3" height="3"/>
</clipPath>
<g id="surface41" clip-path="url(#clip27)">
<rect x="0" y="0" width="3" height="3" style="fill:rgb(100%,0%,0%);fill-opacity:1;stroke:none;"/>
</g>
<pattern id="pattern12" patternUnits="userSpaceOnUse" width="3" height="3" patternTransform="matrix(0.944947,0,0,-0.944947,0,170.477)">
<use xlink:href="#surface41"/>
</pattern>
<clipPath id="clip28">
  <path d="M 152.585938 144.648438 L 158.253906 144.648438 L 158.253906 150.316406 L 152.585938 150.316406 Z M 152.585938 144.648438 "/>
</clipPath>
<clipPath id="clip29">
  <rect x="0" y="0" width="3" height="3"/>
</clipPath>
<g id="surface44" clip-path="url(#clip29)">
<rect x="0" y="0" width="3" height="3" style="fill:rgb(100%,0%,0%);fill-opacity:1;stroke:none;"/>
</g>
<pattern id="pattern13" patternUnits="userSpaceOnUse" width="3" height="3" patternTransform="matrix(0.944947,0,0,-0.944947,0,170.477)">
<use xlink:href="#surface44"/>
</pattern>
<clipPath id="clip30">
  <path d="M 146.914062 154.851562 L 152.585938 154.851562 L 152.585938 160.523438 L 146.914062 160.523438 Z M 146.914062 154.851562 "/>
</clipPath>
<clipPath id="clip31">
  <rect x="0" y="0" width="3" height="3"/>
</clipPath>
<g id="surface47" clip-path="url(#clip31)">
<rect x="0" y="0" width="3" height="3" style="fill:rgb(100%,0%,0%);fill-opacity:1;stroke:none;"/>
</g>
<pattern id="pattern14" patternUnits="userSpaceOnUse" width="3" height="3" patternTransform="matrix(0.944947,0,0,-0.944947,0,170.477)">
<use xlink:href="#surface47"/>
</pattern>
</defs>
<g id="surface1">
<g clip-path="url(#clip1)" clip-rule="nonzero">
<path style=" stroke:none;fill-rule:nonzero;fill:rgb(100%,100%,100%);fill-opacity:1;" d="M 0.199219 166.292969 L 0.199219 4.183594 C 0.199219 1.980469 1.984375 0.199219 4.183594 0.199219 L 166.292969 0.199219 C 168.496094 0.199219 170.277344 1.980469 170.277344 4.183594 L 170.277344 166.292969 C 170.277344 168.492188 168.496094 170.277344 166.292969 170.277344 L 4.183594 170.277344 C 1.984375 170.277344 0.199219 168.492188 0.199219 166.292969 Z M 0.199219 166.292969 "/>
</g>
<g clip-path="url(#clip2)" clip-rule="nonzero">
<path style=" stroke:none;fill-rule:nonzero;fill:url(#pattern0);" d="M 68.230469 102.246094 L 102.246094 102.246094 L 102.246094 68.230469 L 68.230469 68.230469 Z M 68.230469 102.246094 "/>
</g>
<path style="fill:none;stroke-width:1.59404;stroke-linecap:butt;stroke-linejoin:miter;stroke:rgb(100%,0%,0%);stroke-opacity:1;stroke-miterlimit:10;" d="M -17.008531 17.007531 L -17.008531 -17.008094 L 17.007094 -17.008094 L 17.007094 17.007531 Z M -17.008531 17.007531 " transform="matrix(1,0,0,-1,85.239,85.238)"/>
<g clip-path="url(#clip4)" clip-rule="nonzero">
<path style=" stroke:none;fill-rule:nonzero;fill:url(#pattern1);" d="M 115.851562 54.625 L 149.867188 54.625 L 149.867188 20.609375 L 115.851562 20.609375 Z M 115.851562 54.625 "/>
</g>
<path style="fill:none;stroke-width:1.59404;stroke-linecap:butt;stroke-linejoin:miter;stroke:rgb(100%,0%,0%);stroke-opacity:1;stroke-miterlimit:10;" d="M 30.612562 64.628625 L 30.612562 30.613 L 64.632094 30.613 L 64.632094 64.628625 Z M 30.612562 64.628625 " transform="matrix(1,0,0,-1,85.239,85.238)"/>
<g clip-path="url(#clip6)" clip-rule="nonzero">
<path style=" stroke:none;fill-rule:nonzero;fill:url(#pattern2);" d="M 20.609375 149.867188 L 54.625 149.867188 L 54.625 115.851562 L 20.609375 115.851562 Z M 20.609375 149.867188 "/>
</g>
<path style="fill:none;stroke-width:1.59404;stroke-linecap:butt;stroke-linejoin:miter;stroke:rgb(100%,0%,0%);stroke-opacity:1;stroke-miterlimit:10;" d="M -64.629625 -30.613563 L -64.629625 -64.629188 L -30.614 -64.629188 L -30.614 -30.613563 Z M -64.629625 -30.613563 " transform="matrix(1,0,0,-1,85.239,85.238)"/>
<g clip-path="url(#clip8)" clip-rule="nonzero">
<path style=" stroke:none;fill-rule:nonzero;fill:url(#pattern3);" d="M 85.238281 71.632812 L 119.253906 71.632812 L 119.253906 37.617188 L 85.238281 37.617188 Z M 85.238281 71.632812 "/>
</g>
<path style="fill:none;stroke-width:1.59404;stroke-linecap:butt;stroke-linejoin:miter;stroke:rgb(100%,0%,0%);stroke-opacity:1;stroke-miterlimit:10;" d="M -0.00071875 47.620812 L -0.00071875 13.605187 L 34.014906 13.605187 L 34.014906 47.620812 Z M -0.00071875 47.620812 " transform="matrix(1,0,0,-1,85.239,85.238)"/>
<g clip-path="url(#clip10)" clip-rule="nonzero">
<path style=" stroke:none;fill-rule:nonzero;fill:url(#pattern4);" d="M 51.222656 132.859375 L 85.238281 132.859375 L 85.238281 98.84375 L 51.222656 98.84375 Z M 51.222656 132.859375 "/>
</g>
<path style="fill:none;stroke-width:1.59404;stroke-linecap:butt;stroke-linejoin:miter;stroke:rgb(100%,0%,0%);stroke-opacity:1;stroke-miterlimit:10;" d="M -34.016344 -13.60575 L -34.016344 -47.621375 L -0.00071875 -47.621375 L -0.00071875 -13.60575 Z M -34.016344 -13.60575 " transform="matrix(1,0,0,-1,85.239,85.238)"/>
<path style=" stroke:none;fill-rule:nonzero;fill:rgb(100%,100%,100%);fill-opacity:1;" d="M 3.71875 28.078125 L 3.71875 7.703125 C 3.71875 5.503906 5.503906 3.71875 7.703125 3.71875 L 28.078125 3.71875 C 30.28125 3.71875 32.066406 5.503906 32.066406 7.703125 L 32.066406 28.078125 C 32.066406 30.28125 30.28125 32.066406 28.078125 32.066406 L 7.703125 32.066406 C 5.503906 32.066406 3.71875 30.28125 3.71875 28.078125 Z M 3.71875 28.078125 "/>
<g clip-path="url(#clip12)" clip-rule="nonzero">
<path style=" stroke:none;fill-rule:nonzero;fill:url(#pattern5);" d="M 15.058594 20.726562 L 20.726562 20.726562 L 20.726562 15.058594 L 15.058594 15.058594 Z M 15.058594 20.726562 "/>
</g>
<path style="fill:none;stroke-width:1.19553;stroke-linecap:butt;stroke-linejoin:miter;stroke:rgb(100%,0%,0%);stroke-opacity:1;stroke-miterlimit:10;" d="M -2.833406 2.833406 L -2.833406 -2.834563 L 2.834562 -2.834563 L 2.834562 2.833406 Z M -2.833406 2.833406 " transform="matrix(1,0,0,-1,17.892,17.892)"/>
<g clip-path="url(#clip14)" clip-rule="nonzero">
<path style=" stroke:none;fill-rule:nonzero;fill:url(#pattern6);" d="M 22.996094 12.789062 L 28.664062 12.789062 L 28.664062 7.121094 L 22.996094 7.121094 Z M 22.996094 12.789062 "/>
</g>
<path style="fill:none;stroke-width:1.19553;stroke-linecap:butt;stroke-linejoin:miter;stroke:rgb(100%,0%,0%);stroke-opacity:1;stroke-miterlimit:10;" d="M 5.104094 10.770906 L 5.104094 5.102937 L 10.772062 5.102937 L 10.772062 10.770906 Z M 5.104094 10.770906 " transform="matrix(1,0,0,-1,17.892,17.892)"/>
<g clip-path="url(#clip16)" clip-rule="nonzero">
<path style=" stroke:none;fill-rule:nonzero;fill:url(#pattern7);" d="M 7.121094 28.664062 L 12.789062 28.664062 L 12.789062 22.996094 L 7.121094 22.996094 Z M 7.121094 28.664062 "/>
</g>
<path style="fill:none;stroke-width:1.19553;stroke-linecap:butt;stroke-linejoin:miter;stroke:rgb(100%,0%,0%);stroke-opacity:1;stroke-miterlimit:10;" d="M -10.770906 -5.104094 L -10.770906 -10.772063 L -5.102938 -10.772063 L -5.102938 -5.104094 Z M -10.770906 -5.104094 " transform="matrix(1,0,0,-1,17.892,17.892)"/>
<g clip-path="url(#clip18)" clip-rule="nonzero">
<path style=" stroke:none;fill-rule:nonzero;fill:url(#pattern8);" d="M 17.890625 15.625 L 23.558594 15.625 L 23.558594 9.957031 L 17.890625 9.957031 Z M 17.890625 15.625 "/>
</g>
<path style="fill:none;stroke-width:1.19553;stroke-linecap:butt;stroke-linejoin:miter;stroke:rgb(100%,0%,0%);stroke-opacity:1;stroke-miterlimit:10;" d="M -0.001375 7.934969 L -0.001375 2.267 L 5.6705 2.267 L 5.6705 7.934969 Z M -0.001375 7.934969 " transform="matrix(1,0,0,-1,17.892,17.892)"/>
<g clip-path="url(#clip20)" clip-rule="nonzero">
<path style=" stroke:none;fill-rule:nonzero;fill:url(#pattern9);" d="M 12.222656 25.828125 L 17.890625 25.828125 L 17.890625 20.160156 L 12.222656 20.160156 Z M 12.222656 25.828125 "/>
</g>
<path style="fill:none;stroke-width:1.19553;stroke-linecap:butt;stroke-linejoin:miter;stroke:rgb(100%,0%,0%);stroke-opacity:1;stroke-miterlimit:10;" d="M -5.669344 -2.268156 L -5.669344 -7.936125 L -0.001375 -7.936125 L -0.001375 -2.268156 Z M -5.669344 -2.268156 " transform="matrix(1,0,0,-1,17.892,17.892)"/>
<path style=" stroke:none;fill-rule:nonzero;fill:rgb(100%,100%,100%);fill-opacity:1;" d="M 138.410156 162.773438 L 138.410156 142.398438 C 138.410156 140.195312 140.195312 138.410156 142.398438 138.410156 L 162.773438 138.410156 C 164.972656 138.410156 166.757812 140.195312 166.757812 142.398438 L 166.757812 162.773438 C 166.757812 164.972656 164.972656 166.757812 162.773438 166.757812 L 142.398438 166.757812 C 140.195312 166.757812 138.410156 164.972656 138.410156 162.773438 Z M 138.410156 162.773438 "/>
<g clip-path="url(#clip22)" clip-rule="nonzero">
<path style=" stroke:none;fill-rule:nonzero;fill:url(#pattern10);" d="M 149.75 155.417969 L 155.417969 155.417969 L 155.417969 149.75 L 149.75 149.75 Z M 149.75 155.417969 "/>
</g>
<path style="fill:none;stroke-width:1.19553;stroke-linecap:butt;stroke-linejoin:miter;stroke:rgb(100%,0%,0%);stroke-opacity:1;stroke-miterlimit:10;" d="M -2.835 2.835 L -2.835 -2.832969 L 2.832969 -2.832969 L 2.832969 2.835 Z M -2.835 2.835 " transform="matrix(1,0,0,-1,152.585,152.585)"/>
<g clip-path="url(#clip24)" clip-rule="nonzero">
<path style=" stroke:none;fill-rule:nonzero;fill:url(#pattern11);" d="M 157.6875 147.484375 L 163.355469 147.484375 L 163.355469 141.816406 L 157.6875 141.816406 Z M 157.6875 147.484375 "/>
</g>
<path style="fill:none;stroke-width:1.19553;stroke-linecap:butt;stroke-linejoin:miter;stroke:rgb(100%,0%,0%);stroke-opacity:1;stroke-miterlimit:10;" d="M 5.1025 10.7725 L 5.1025 5.100625 L 10.770469 5.100625 L 10.770469 10.7725 Z M 5.1025 10.7725 " transform="matrix(1,0,0,-1,152.585,152.585)"/>
<g clip-path="url(#clip26)" clip-rule="nonzero">
<path style=" stroke:none;fill-rule:nonzero;fill:url(#pattern12);" d="M 141.8125 163.355469 L 147.480469 163.355469 L 147.480469 157.6875 L 141.8125 157.6875 Z M 141.8125 163.355469 "/>
</g>
<path style="fill:none;stroke-width:1.19553;stroke-linecap:butt;stroke-linejoin:miter;stroke:rgb(100%,0%,0%);stroke-opacity:1;stroke-miterlimit:10;" d="M -10.7725 -5.1025 L -10.7725 -10.770469 L -5.100625 -10.770469 L -5.100625 -5.1025 Z M -10.7725 -5.1025 " transform="matrix(1,0,0,-1,152.585,152.585)"/>
<g clip-path="url(#clip28)" clip-rule="nonzero">
<path style=" stroke:none;fill-rule:nonzero;fill:url(#pattern13);" d="M 152.585938 150.316406 L 158.253906 150.316406 L 158.253906 144.648438 L 152.585938 144.648438 Z M 152.585938 150.316406 "/>
</g>
<path style="fill:none;stroke-width:1.19553;stroke-linecap:butt;stroke-linejoin:miter;stroke:rgb(100%,0%,0%);stroke-opacity:1;stroke-miterlimit:10;" d="M 0.0009375 7.936562 L 0.0009375 2.268594 L 5.668906 2.268594 L 5.668906 7.936562 Z M 0.0009375 7.936562 " transform="matrix(1,0,0,-1,152.585,152.585)"/>
<g clip-path="url(#clip30)" clip-rule="nonzero">
<path style=" stroke:none;fill-rule:nonzero;fill:url(#pattern14);" d="M 146.914062 160.523438 L 152.582031 160.523438 L 152.582031 154.855469 L 146.914062 154.855469 Z M 146.914062 160.523438 "/>
</g>
<path style="fill:none;stroke-width:1.19553;stroke-linecap:butt;stroke-linejoin:miter;stroke:rgb(100%,0%,0%);stroke-opacity:1;stroke-miterlimit:10;" d="M -5.670938 -2.266563 L -5.670938 -7.938438 L 0.0009375 -7.938438 L 0.0009375 -2.266563 Z M -5.670938 -2.266563 " transform="matrix(1,0,0,-1,152.585,152.585)"/>
</g>
</svg>
