<?xml version="1.0" encoding="UTF-8"?>
<svg xmlns="http://www.w3.org/2000/svg" xmlns:xlink="http://www.w3.org/1999/xlink" width="170.477pt" height="170.477pt" viewBox="0 0 170.477 170.477" version="1.1">
<defs>
<clipPath id="clip1">
  <path d="M 0 0 L 170.476562 0 L 170.476562 170.476562 L 0 170.476562 Z M 0 0 "/>
</clipPath>
<clipPath id="clip2">
  <path d="M 98.84375 37.617188 L 132.859375 37.617188 L 132.859375 71.632812 L 98.84375 71.632812 Z M 98.84375 37.617188 "/>
</clipPath>
<clipPath id="clip3">
  <rect x="0" y="0" width="3" height="3"/>
</clipPath>
<g id="surface5" clip-path="url(#clip3)">
<path style=" stroke:none;fill-rule:nonzero;fill:rgb(0%,50%,100%);fill-opacity:1;" d="M 0 0 L 1.5 0 L 1.5 3 L 0 3 Z M 0 0 "/>
</g>
<pattern id="pattern0" patternUnits="userSpaceOnUse" width="3" height="3" patternTransform="matrix(0.944947,0,0,-0.944947,0,170.477)">
<use xlink:href="#surface5"/>
</pattern>
<clipPath id="clip4">
  <path d="M 37.617188 98.84375 L 71.632812 98.84375 L 71.632812 132.859375 L 37.617188 132.859375 Z M 37.617188 98.84375 "/>
</clipPath>
<clipPath id="clip5">
  <rect x="0" y="0" width="3" height="3"/>
</clipPath>
<g id="surface8" clip-path="url(#clip5)">
<path style=" stroke:none;fill-rule:nonzero;fill:rgb(0%,50%,100%);fill-opacity:1;" d="M 0 0 L 1.5 0 L 1.5 3 L 0 3 Z M 0 0 "/>
</g>
<pattern id="pattern1" patternUnits="userSpaceOnUse" width="3" height="3" patternTransform="matrix(0.944947,0,0,-0.944947,0,170.477)">
<use xlink:href="#surface8"/>
</pattern>
<clipPath id="clip6">
  <path d="M 20.160156 9.957031 L 25.828125 9.957031 L 25.828125 15.625 L 20.160156 15.625 Z M 20.160156 9.957031 "/>
</clipPath>
<clipPath id="clip7">
  <rect x="0" y="0" width="3" height="3"/>
</clipPath>
<g id="surface11" clip-path="url(#clip7)">
<path style=" stroke:none;fill-rule:nonzero;fill:rgb(0%,50%,100%);fill-opacity:1;" d="M 0 0 L 1 0 L 1 3 L 0 3 Z M 0 0 "/>
</g>
<pattern id="pattern2" patternUnits="userSpaceOnUse" width="3" height="3" patternTransform="matrix(0.70864,0,0,-0.944947,0,170.477)">
<use xlink:href="#surface11"/>
</pattern>
<clipPath id="clip8">
  <path d="M 9.957031 20.160156 L 15.625 20.160156 L 15.625 25.828125 L 9.957031 25.828125 Z M 9.957031 20.160156 "/>
</clipPath>
<clipPath id="clip9">
  <rect x="0" y="0" width="3" height="3"/>
</clipPath>
<g id="surface14" clip-path="url(#clip9)">
<path style=" stroke:none;fill-rule:nonzero;fill:rgb(0%,50%,100%);fill-opacity:1;" d="M 0 0 L 1 0 L 1 3 L 0 3 Z M 0 0 "/>
</g>
<pattern id="pattern3" patternUnits="userSpaceOnUse" width="3" height="3" patternTransform="matrix(0.70864,0,0,-0.944947,0,170.477)">
<use xlink:href="#surface14"/>
</pattern>
<clipPath id="clip10">
  <path d="M 154.851562 144.648438 L 160.523438 144.648438 L 160.523438 150.316406 L 154.851562 150.316406 Z M 154.851562 144.648438 "/>
</clipPath>
<clipPath id="clip11">
  <rect x="0" y="0" width="3" height="3"/>
</clipPath>
<g id="surface17" clip-path="url(#clip11)">
<path style=" stroke:none;fill-rule:nonzero;fill:rgb(0%,50%,100%);fill-opacity:1;" d="M 0 0 L 1 0 L 1 3 L 0 3 Z M 0 0 "/>
</g>
<pattern id="pattern4" patternUnits="userSpaceOnUse" width="3" height="3" patternTransform="matrix(0.70864,0,0,-0.944947,0,170.477)">
<use xlink:href="#surface17"/>
</pattern>
<clipPath id="clip12">
  <path d="M 144.648438 154.851562 L 150.316406 154.851562 L 150.316406 160.523438 L 144.648438 160.523438 Z M 144.648438 154.851562 "/>
</clipPath>
<clipPath id="clip13">
  <rect x="0" y="0" width="3" height="3"/>
</clipPath>
<g id="surface20" clip-path="url(#clip13)">
<path style=" stroke:none;fill-rule:nonzero;fill:rgb(0%,50%,100%);fill-opacity:1;" d="M 0 0 L 1 0 L 1 3 L 0 3 Z M 0 0 "/>
</g>
<pattern id="pattern5" patternUnits="userSpaceOnUse" width="3" height="3" patternTransform="matrix(0.70864,0,0,-0.944947,0,170.477)">
<use xlink:href="#surface20"/>
</pattern>
</defs>
<g id="surface1">
<g clip-path="url(#clip1)" clip-rule="nonzero">
<path style=" stroke:none;fill-rule:nonzero;fill:rgb(100%,100%,100%);fill-opacity:1;" d="M 0.199219 166.292969 L 0.199219 4.183594 C 0.199219 1.980469 1.984375 0.199219 4.183594 0.199219 L 166.292969 0.199219 C 168.496094 0.199219 170.277344 1.980469 170.277344 4.183594 L 170.277344 166.292969 C 170.277344 168.492188 168.496094 170.277344 166.292969 170.277344 L 4.183594 170.277344 C 1.984375 170.277344 0.199219 168.492188 0.199219 166.292969 Z M 0.199219 166.292969 "/>
</g>
<g clip-path="url(#clip2)" clip-rule="nonzero">
<path style=" stroke:none;fill-rule:nonzero;fill:url(#pattern0);" d="M 98.84375 71.632812 L 132.859375 71.632812 L 132.859375 37.617188 L 98.84375 37.617188 Z M 98.84375 71.632812 "/>
</g>
<path style="fill:none;stroke-width:1.59404;stroke-linecap:butt;stroke-linejoin:miter;stroke:rgb(0%,50%,100%);stroke-opacity:1;stroke-miterlimit:10;" d="M 13.60475 47.620812 L 13.60475 13.605187 L 47.620375 13.605187 L 47.620375 47.620812 Z M 13.60475 47.620812 " transform="matrix(1,0,0,-1,85.239,85.238)"/>
<g clip-path="url(#clip4)" clip-rule="nonzero">
<path style=" stroke:none;fill-rule:nonzero;fill:url(#pattern1);" d="M 37.617188 132.859375 L 71.632812 132.859375 L 71.632812 98.84375 L 37.617188 98.84375 Z M 37.617188 132.859375 "/>
</g>
<path style="fill:none;stroke-width:1.59404;stroke-linecap:butt;stroke-linejoin:miter;stroke:rgb(0%,50%,100%);stroke-opacity:1;stroke-miterlimit:10;" d="M -47.621813 -13.60575 L -47.621813 -47.621375 L -13.606188 -47.621375 L -13.606188 -13.60575 Z M -47.621813 -13.60575 " transform="matrix(1,0,0,-1,85.239,85.238)"/>
<path style=" stroke:none;fill-rule:nonzero;fill:rgb(100%,100%,100%);fill-opacity:1;" d="M 3.71875 28.078125 L 3.71875 7.703125 C 3.71875 5.503906 5.503906 3.71875 7.703125 3.71875 L 28.078125 3.71875 C 30.28125 3.71875 32.066406 5.503906 32.066406 7.703125 L 32.066406 28.078125 C 32.066406 30.28125 30.28125 32.066406 28.078125 32.066406 L 7.703125 32.066406 C 5.503906 32.066406 3.71875 30.28125 3.71875 28.078125 Z M 3.71875 28.078125 "/>
<g clip-path="url(#clip6)" clip-rule="nonzero">
<path style=" stroke:none;fill-rule:nonzero;fill:url(#pattern2);" d="M 20.160156 15.625 L 25.828125 15.625 L 25.828125 9.957031 L 20.160156 9.957031 Z M 20.160156 15.625 "/>
</g>
<path style="fill:none;stroke-width:1.19553;stroke-linecap:butt;stroke-linejoin:miter;stroke:rgb(0%,50%,100%);stroke-opacity:1;stroke-miterlimit:10;" d="M 2.268156 7.934969 L 2.268156 2.267 L 7.936125 2.267 L 7.936125 7.934969 Z M 2.268156 7.934969 " transform="matrix(1,0,0,-1,17.892,17.892)"/>
<g clip-path="url(#clip8)" clip-rule="nonzero">
<path style=" stroke:none;fill-rule:nonzero;fill:url(#pattern3);" d="M 9.957031 25.828125 L 15.625 25.828125 L 15.625 20.160156 L 9.957031 20.160156 Z M 9.957031 25.828125 "/>
</g>
<path style="fill:none;stroke-width:1.19553;stroke-linecap:butt;stroke-linejoin:miter;stroke:rgb(0%,50%,100%);stroke-opacity:1;stroke-miterlimit:10;" d="M -7.934969 -2.268156 L -7.934969 -7.936125 L -2.267 -7.936125 L -2.267 -2.268156 Z M -7.934969 -2.268156 " transform="matrix(1,0,0,-1,17.892,17.892)"/>
<path style=" stroke:none;fill-rule:nonzero;fill:rgb(100%,100%,100%);fill-opacity:1;" d="M 138.410156 162.773438 L 138.410156 142.398438 C 138.410156 140.195312 140.195312 138.410156 142.398438 138.410156 L 162.773438 138.410156 C 164.972656 138.410156 166.757812 140.195312 166.757812 142.398438 L 166.757812 162.773438 C 166.757812 164.972656 164.972656 166.757812 162.773438 166.757812 L 142.398438 166.757812 C 140.195312 166.757812 138.410156 164.972656 138.410156 162.773438 Z M 138.410156 162.773438 "/>
<g clip-path="url(#clip10)" clip-rule="nonzero">
<path style=" stroke:none;fill-rule:nonzero;fill:url(#pattern4);" d="M 154.851562 150.316406 L 160.519531 150.316406 L 160.519531 144.648438 L 154.851562 144.648438 Z M 154.851562 150.316406 "/>
</g>
<path style="fill:none;stroke-width:1.19553;stroke-linecap:butt;stroke-linejoin:miter;stroke:rgb(0%,50%,100%);stroke-opacity:1;stroke-miterlimit:10;" d="M 2.266562 7.936562 L 2.266562 2.268594 L 7.938437 2.268594 L 7.938437 7.936562 Z M 2.266562 7.936562 " transform="matrix(1,0,0,-1,152.585,152.585)"/>
<g clip-path="url(#clip12)" clip-rule="nonzero">
<path style=" stroke:none;fill-rule:nonzero;fill:url(#pattern5);" d="M 144.648438 160.523438 L 150.316406 160.523438 L 150.316406 154.855469 L 144.648438 154.855469 Z M 144.648438 160.523438 "/>
</g>
<path style="fill:none;stroke-width:1.19553;stroke-linecap:butt;stroke-linejoin:miter;stroke:rgb(0%,50%,100%);stroke-opacity:1;stroke-miterlimit:10;" d="M -7.936563 -2.266563 L -7.936563 -7.938438 L -2.268594 -7.938438 L -2.268594 -2.266563 Z M -7.936563 -2.266563 " transform="matrix(1,0,0,-1,152.585,152.585)"/>
</g>
</svg>
