<?xml version="1.0" encoding="UTF-8"?>
<svg xmlns="http://www.w3.org/2000/svg" xmlns:xlink="http://www.w3.org/1999/xlink" width="170.477pt" height="170.477pt" viewBox="0 0 170.477 170.477" version="1.1">
<defs>
<clipPath id="clip1">
  <path d="M 0 0 L 170.476562 0 L 170.476562 170.476562 L 0 170.476562 Z M 0 0 "/>
</clipPath>
</defs>
<g id="surface1">
<g clip-path="url(#clip1)" clip-rule="nonzero">
<path style=" stroke:none;fill-rule:nonzero;fill:rgb(100%,100%,100%);fill-opacity:1;" d="M 0.199219 166.292969 L 0.199219 4.183594 C 0.199219 1.980469 1.984375 0.199219 4.183594 0.199219 L 166.292969 0.199219 C 168.496094 0.199219 170.277344 1.980469 170.277344 4.183594 L 170.277344 166.292969 C 170.277344 168.492188 168.496094 170.277344 166.292969 170.277344 L 4.183594 170.277344 C 1.984375 170.277344 0.199219 168.492188 0.199219 166.292969 Z M 0.199219 166.292969 "/>
</g>
<path style="fill:none;stroke-width:1.59404;stroke-linecap:butt;stroke-linejoin:miter;stroke:rgb(100%,0%,0%);stroke-opacity:1;stroke-miterlimit:10;" d="M -17.008531 17.007531 L -17.008531 -17.008094 L 17.007094 -17.008094 L 17.007094 17.007531 Z M -17.008531 17.007531 " transform="matrix(1,0,0,-1,85.239,85.238)"/>
<path style="fill:none;stroke-width:1.59404;stroke-linecap:butt;stroke-linejoin:miter;stroke:rgb(100%,0%,0%);stroke-opacity:1;stroke-miterlimit:10;" d="M 30.612562 64.628625 L 30.612562 30.613 L 64.632094 30.613 L 64.632094 64.628625 Z M 30.612562 64.628625 " transform="matrix(1,0,0,-1,85.239,85.238)"/>
<path style="fill:none;stroke-width:1.59404;stroke-linecap:butt;stroke-linejoin:miter;stroke:rgb(100%,0%,0%);stroke-opacity:1;stroke-miterlimit:10;" d="M -64.629625 -30.613563 L -64.629625 -64.629188 L -30.614 -64.629188 L -30.614 -30.613563 Z M -64.629625 -30.613563 " transform="matrix(1,0,0,-1,85.239,85.238)"/>
<path style="fill:none;stroke-width:1.59404;stroke-linecap:butt;stroke-linejoin:miter;stroke:rgb(100%,0%,0%);stroke-opacity:1;stroke-miterlimit:10;" d="M -0.00071875 47.620812 L -0.00071875 13.605187 L 34.014906 13.605187 L 34.014906 47.620812 Z M -0.00071875 47.620812 " transform="matrix(1,0,0,-1,85.239,85.238)"/>
<path style="fill:none;stroke-width:1.59404;stroke-linecap:butt;stroke-linejoin:miter;stroke:rgb(100%,0%,0%);stroke-opacity:1;stroke-miterlimit:10;" d="M -34.016344 -13.60575 L -34.016344 -47.621375 L -0.00071875 -47.621375 L -0.00071875 -13.60575 Z M -34.016344 -13.60575 " transform="matrix(1,0,0,-1,85.239,85.238)"/>
<path style=" stroke:none;fill-rule:nonzero;fill:rgb(100%,100%,100%);fill-opacity:1;" d="M 3.71875 28.078125 L 3.71875 7.703125 C 3.71875 5.503906 5.503906 3.71875 7.703125 3.71875 L 28.078125 3.71875 C 30.28125 3.71875 32.066406 5.503906 32.066406 7.703125 L 32.066406 28.078125 C 32.066406 30.28125 30.28125 32.066406 28.078125 32.066406 L 7.703125 32.066406 C 5.503906 32.066406 3.71875 30.28125 3.71875 28.078125 Z M 3.71875 28.078125 "/>
<path style="fill:none;stroke-width:1.19553;stroke-linecap:butt;stroke-linejoin:miter;stroke:rgb(100%,0%,0%);stroke-opacity:1;stroke-miterlimit:10;" d="M -2.833406 2.833406 L -2.833406 -2.834563 L 2.834562 -2.834563 L 2.834562 2.833406 Z M -2.833406 2.833406 " transform="matrix(1,0,0,-1,17.892,17.892)"/>
<path style="fill:none;stroke-width:1.19553;stroke-linecap:butt;stroke-linejoin:miter;stroke:rgb(100%,0%,0%);stroke-opacity:1;stroke-miterlimit:10;" d="M 5.104094 10.770906 L 5.104094 5.102937 L 10.772062 5.102937 L 10.772062 10.770906 Z M 5.104094 10.770906 " transform="matrix(1,0,0,-1,17.892,17.892)"/>
<path style="fill:none;stroke-width:1.19553;stroke-linecap:butt;stroke-linejoin:miter;stroke:rgb(100%,0%,0%);stroke-opacity:1;stroke-miterlimit:10;" d="M -10.770906 -5.104094 L -10.770906 -10.772063 L -5.102938 -10.772063 L -5.102938 -5.104094 Z M -10.770906 -5.104094 " transform="matrix(1,0,0,-1,17.892,17.892)"/>
<path style="fill:none;stroke-width:1.19553;stroke-linecap:butt;stroke-linejoin:miter;stroke:rgb(100%,0%,0%);stroke-opacity:1;stroke-miterlimit:10;" d="M -0.001375 7.934969 L -0.001375 2.267 L 5.6705 2.267 L 5.6705 7.934969 Z M -0.001375 7.934969 " transform="matrix(1,0,0,-1,17.892,17.892)"/>
<path style="fill:none;stroke-width:1.19553;stroke-linecap:butt;stroke-linejoin:miter;stroke:rgb(100%,0%,0%);stroke-opacity:1;stroke-miterlimit:10;" d="M -5.669344 -2.268156 L -5.669344 -7.936125 L -0.001375 -7.936125 L -0.001375 -2.268156 Z M -5.669344 -2.268156 " transform="matrix(1,0,0,-1,17.892,17.892)"/>
<path style=" stroke:none;fill-rule:nonzero;fill:rgb(100%,100%,100%);fill-opacity:1;" d="M 138.410156 162.773438 L 138.410156 142.398438 C 138.410156 140.195312 140.195312 138.410156 142.398438 138.410156 L 162.773438 138.410156 C 164.972656 138.410156 166.757812 140.195312 166.757812 142.398438 L 166.757812 162.773438 C 166.757812 164.972656 164.972656 166.757812 162.773438 166.757812 L 142.398438 166.757812 C 140.195312 166.757812 138.410156 164.972656 138.410156 162.773438 Z M 138.410156 162.773438 "/>
<path style="fill:none;stroke-width:1.19553;stroke-linecap:butt;stroke-linejoin:miter;stroke:rgb(100%,0%,0%);stroke-opacity:1;stroke-miterlimit:10;" d="M -2.835 2.835 L -2.835 -2.832969 L 2.832969 -2.832969 L 2.832969 2.835 Z M -2.835 2.835 " transform="matrix(1,0,0,-1,152.585,152.585)"/>
<path style="fill:none;stroke-width:1.19553;stroke-linecap:butt;stroke-linejoin:miter;stroke:rgb(100%,0%,0%);stroke-opacity:1;stroke-miterlimit:10;" d="M 5.1025 10.7725 L 5.1025 5.100625 L 10.770469 5.100625 L 10.770469 10.7725 Z M 5.1025 10.7725 " transform="matrix(1,0,0,-1,152.585,152.585)"/>
<path style="fill:none;stroke-width:1.19553;stroke-linecap:butt;stroke-linejoin:miter;stroke:rgb(100%,0%,0%);stroke-opacity:1;stroke-miterlimit:10;" d="M -10.7725 -5.1025 L -10.7725 -10.770469 L -5.100625 -10.770469 L -5.100625 -5.1025 Z M -10.7725 -5.1025 " transform="matrix(1,0,0,-1,152.585,152.585)"/>
<path style="fill:none;stroke-width:1.19553;stroke-linecap:butt;stroke-linejoin:miter;stroke:rgb(100%,0%,0%);stroke-opacity:1;stroke-miterlimit:10;" d="M 0.0009375 7.936562 L 0.0009375 2.268594 L 5.668906 2.268594 L 5.668906 7.936562 Z M 0.0009375 7.936562 " transform="matrix(1,0,0,-1,152.585,152.585)"/>
<path style="fill:none;stroke-width:1.19553;stroke-linecap:butt;stroke-linejoin:miter;stroke:rgb(100%,0%,0%);stroke-opacity:1;stroke-miterlimit:10;" d="M -5.670938 -2.266563 L -5.670938 -7.938438 L 0.0009375 -7.938438 L 0.0009375 -2.266563 Z M -5.670938 -2.266563 " transform="matrix(1,0,0,-1,152.585,152.585)"/>
</g>
</svg>
