<?xml version="1.0" encoding="UTF-8"?>
<svg xmlns="http://www.w3.org/2000/svg" xmlns:xlink="http://www.w3.org/1999/xlink" width="170.477pt" height="170.477pt" viewBox="0 0 170.477 170.477" version="1.1">
<defs>
<clipPath id="clip1">
  <path d="M 0 0 L 170.476562 0 L 170.476562 170.476562 L 0 170.476562 Z M 0 0 "/>
</clipPath>
<clipPath id="clip2">
  <path d="M 137 127 L 170.476562 127 L 170.476562 168 L 137 168 Z M 137 127 "/>
</clipPath>
<clipPath id="clip3">
  <path d="M 127 137 L 168 137 L 168 170.476562 L 127 170.476562 Z M 127 137 "/>
</clipPath>
</defs>
<g id="surface1">
<g clip-path="url(#clip1)" clip-rule="nonzero">
<path style=" stroke:none;fill-rule:nonzero;fill:rgb(100%,100%,100%);fill-opacity:1;" d="M 0.199219 166.292969 L 0.199219 4.183594 C 0.199219 1.980469 1.984375 0.199219 4.183594 0.199219 L 166.292969 0.199219 C 168.496094 0.199219 170.277344 1.980469 170.277344 4.183594 L 170.277344 166.292969 C 170.277344 168.492188 168.496094 170.277344 166.292969 170.277344 L 4.183594 170.277344 C 1.984375 170.277344 0.199219 168.492188 0.199219 166.292969 Z M 0.199219 166.292969 "/>
</g>
<path style="fill:none;stroke-width:1.59404;stroke-linecap:butt;stroke-linejoin:miter;stroke:rgb(9.999084%,75%,23.999023%);stroke-opacity:1;stroke-miterlimit:10;" d="M 51.022719 30.613 C 51.022719 41.886437 41.886 51.023156 30.612562 51.023156 C 19.343031 51.023156 10.206312 41.886437 10.206312 30.613 C 10.206312 19.343469 19.343031 10.202844 30.612562 10.202844 C 41.886 10.202844 51.022719 19.343469 51.022719 30.613 Z M 51.022719 30.613 " transform="matrix(1,0,0,-1,85.239,85.238)"/>
<path style="fill:none;stroke-width:1.59404;stroke-linecap:butt;stroke-linejoin:miter;stroke:rgb(9.999084%,75%,23.999023%);stroke-opacity:1;stroke-miterlimit:10;" d="M -10.203844 -30.613563 C -10.203844 -19.340125 -19.340563 -10.203406 -30.614 -10.203406 C -41.887438 -10.203406 -51.024156 -19.340125 -51.024156 -30.613563 C -51.024156 -41.887 -41.887438 -51.023719 -30.614 -51.023719 C -19.340563 -51.023719 -10.203844 -41.887 -10.203844 -30.613563 Z M -10.203844 -30.613563 " transform="matrix(1,0,0,-1,85.239,85.238)"/>
<path style=" stroke:none;fill-rule:nonzero;fill:rgb(100%,100%,100%);fill-opacity:1;" d="M 3.71875 28.078125 L 3.71875 7.703125 C 3.71875 5.503906 5.503906 3.71875 7.703125 3.71875 L 28.078125 3.71875 C 30.28125 3.71875 32.066406 5.503906 32.066406 7.703125 L 32.066406 28.078125 C 32.066406 30.28125 30.28125 32.066406 28.078125 32.066406 L 7.703125 32.066406 C 5.503906 32.066406 3.71875 30.28125 3.71875 28.078125 Z M 3.71875 28.078125 "/>
<path style="fill:none;stroke-width:1.19553;stroke-linecap:butt;stroke-linejoin:miter;stroke:rgb(9.999084%,75%,23.999023%);stroke-opacity:1;stroke-miterlimit:10;" d="M 8.502531 5.102937 C 8.502531 6.981844 6.979094 8.505281 5.104094 8.505281 C 3.225187 8.505281 1.70175 6.981844 1.70175 5.102937 C 1.70175 3.224031 3.225187 1.700594 5.104094 1.700594 C 6.979094 1.700594 8.502531 3.224031 8.502531 5.102937 Z M 8.502531 5.102937 " transform="matrix(1,0,0,-1,17.892,17.892)"/>
<path style="fill:none;stroke-width:1.19553;stroke-linecap:butt;stroke-linejoin:miter;stroke:rgb(9.999084%,75%,23.999023%);stroke-opacity:1;stroke-miterlimit:10;" d="M -1.700594 -5.104094 C -1.700594 -3.225188 -3.224031 -1.70175 -5.102938 -1.70175 C -6.981844 -1.70175 -8.505281 -3.225188 -8.505281 -5.104094 C -8.505281 -6.979094 -6.981844 -8.502531 -5.102938 -8.502531 C -3.224031 -8.502531 -1.700594 -6.979094 -1.700594 -5.104094 Z M -1.700594 -5.104094 " transform="matrix(1,0,0,-1,17.892,17.892)"/>
<path style=" stroke:none;fill-rule:nonzero;fill:rgb(100%,100%,100%);fill-opacity:1;" d="M 138.410156 162.773438 L 138.410156 142.398438 C 138.410156 140.195312 140.195312 138.410156 142.398438 138.410156 L 162.773438 138.410156 C 164.972656 138.410156 166.757812 140.195312 166.757812 142.398438 L 166.757812 162.773438 C 166.757812 164.972656 164.972656 166.757812 162.773438 166.757812 L 142.398438 166.757812 C 140.195312 166.757812 138.410156 164.972656 138.410156 162.773438 Z M 138.410156 162.773438 "/>
<g clip-path="url(#clip2)" clip-rule="nonzero">
<path style="fill:none;stroke-width:1.19553;stroke-linecap:butt;stroke-linejoin:miter;stroke:rgb(9.999084%,75%,23.999023%);stroke-opacity:1;stroke-miterlimit:10;" d="M 8.504844 5.100625 C 8.504844 6.979531 6.981406 8.502969 5.1025 8.502969 C 3.223594 8.502969 1.700156 6.979531 1.700156 5.100625 C 1.700156 3.221719 3.223594 1.702187 5.1025 1.702187 C 6.981406 1.702187 8.504844 3.221719 8.504844 5.100625 Z M 8.504844 5.100625 " transform="matrix(1,0,0,-1,152.585,152.585)"/>
</g>
<g clip-path="url(#clip3)" clip-rule="nonzero">
<path style="fill:none;stroke-width:1.19553;stroke-linecap:butt;stroke-linejoin:miter;stroke:rgb(9.999084%,75%,23.999023%);stroke-opacity:1;stroke-miterlimit:10;" d="M -1.702188 -5.1025 C -1.702188 -3.223594 -3.221719 -1.700156 -5.100625 -1.700156 C -6.979531 -1.700156 -8.502969 -3.223594 -8.502969 -5.1025 C -8.502969 -6.981406 -6.979531 -8.504844 -5.100625 -8.504844 C -3.221719 -8.504844 -1.702188 -6.981406 -1.702188 -5.1025 Z M -1.702188 -5.1025 " transform="matrix(1,0,0,-1,152.585,152.585)"/>
</g>
</g>
</svg>
