<?xml version="1.0" encoding="UTF-8"?>
<svg xmlns="http://www.w3.org/2000/svg" xmlns:xlink="http://www.w3.org/1999/xlink" width="170.477pt" height="170.477pt" viewBox="0 0 170.477 170.477" version="1.1">
<defs>
<clipPath id="clip1">
  <path d="M 0 0 L 170.476562 0 L 170.476562 170.476562 L 0 170.476562 Z M 0 0 "/>
</clipPath>
<clipPath id="clip2">
  <path d="M 64 64 L 106 64 L 106 106 L 64 106 Z M 64 64 "/>
</clipPath>
<clipPath id="clip3">
  <path d="M 64.828125 105.648438 L 85.238281 64.828125 L 105.648438 105.648438 L 64.828125 105.648438 "/>
</clipPath>
<clipPath id="clip4">
  <rect x="0" y="0" width="3" height="3"/>
</clipPath>
<g id="surface5" clip-path="url(#clip4)">
<rect x="0" y="0" width="3" height="3" style="fill:rgb(0%,50%,100%);fill-opacity:1;stroke:none;"/>
</g>
<pattern id="pattern0" patternUnits="userSpaceOnUse" width="3" height="3" patternTransform="matrix(0.944947,0,0,-0.944947,0,170.477)">
<use xlink:href="#surface5"/>
</pattern>
<clipPath id="clip5">
  <path d="M 14 14 L 22 14 L 22 22 L 14 22 Z M 14 14 "/>
</clipPath>
<clipPath id="clip6">
  <path d="M 14.492188 21.292969 L 17.890625 14.492188 L 21.292969 21.292969 L 14.492188 21.292969 "/>
</clipPath>
<clipPath id="clip7">
  <rect x="0" y="0" width="3" height="3"/>
</clipPath>
<g id="surface8" clip-path="url(#clip7)">
<rect x="0" y="0" width="3" height="3" style="fill:rgb(0%,50%,100%);fill-opacity:1;stroke:none;"/>
</g>
<pattern id="pattern1" patternUnits="userSpaceOnUse" width="3" height="3" patternTransform="matrix(0.944947,0,0,-0.944947,0,170.477)">
<use xlink:href="#surface8"/>
</pattern>
<clipPath id="clip8">
  <path d="M 149 149 L 156 149 L 156 156 L 149 156 Z M 149 149 "/>
</clipPath>
<clipPath id="clip9">
  <path d="M 149.183594 155.988281 L 152.585938 149.183594 L 155.988281 155.988281 L 149.183594 155.988281 "/>
</clipPath>
<clipPath id="clip10">
  <rect x="0" y="0" width="3" height="3"/>
</clipPath>
<g id="surface11" clip-path="url(#clip10)">
<rect x="0" y="0" width="3" height="3" style="fill:rgb(0%,50%,100%);fill-opacity:1;stroke:none;"/>
</g>
<pattern id="pattern2" patternUnits="userSpaceOnUse" width="3" height="3" patternTransform="matrix(0.944947,0,0,-0.944947,0,170.477)">
<use xlink:href="#surface11"/>
</pattern>
<clipPath id="clip11">
  <path d="M 132 132 L 170.476562 132 L 170.476562 170.476562 L 132 170.476562 Z M 132 132 "/>
</clipPath>
</defs>
<g id="surface1">
<g clip-path="url(#clip1)" clip-rule="nonzero">
<path style=" stroke:none;fill-rule:nonzero;fill:rgb(100%,100%,100%);fill-opacity:1;" d="M 0.199219 166.292969 L 0.199219 4.183594 C 0.199219 1.980469 1.984375 0.199219 4.183594 0.199219 L 166.292969 0.199219 C 168.496094 0.199219 170.277344 1.980469 170.277344 4.183594 L 170.277344 166.292969 C 170.277344 168.492188 168.496094 170.277344 166.292969 170.277344 L 4.183594 170.277344 C 1.984375 170.277344 0.199219 168.492188 0.199219 166.292969 Z M 0.199219 166.292969 "/>
</g>
<g clip-path="url(#clip2)" clip-rule="nonzero">
<g clip-path="url(#clip3)" clip-rule="nonzero">
<path style=" stroke:none;fill-rule:nonzero;fill:url(#pattern0);" d="M 64.828125 105.648438 L 105.648438 105.648438 L 105.648438 64.828125 L 64.828125 64.828125 Z M 64.828125 105.648438 "/>
</g>
</g>
<path style="fill:none;stroke-width:1.59404;stroke-linecap:butt;stroke-linejoin:miter;stroke:rgb(0%,50%,100%);stroke-opacity:1;stroke-miterlimit:10;" d="M -20.410875 -20.410438 L -0.00071875 20.409875 L 20.409437 -20.410438 L -20.410875 -20.410438 " transform="matrix(1,0,0,-1,85.239,85.238)"/>
<path style=" stroke:none;fill-rule:nonzero;fill:rgb(100%,100%,100%);fill-opacity:1;" d="M 3.71875 28.078125 L 3.71875 7.703125 C 3.71875 5.503906 5.503906 3.71875 7.703125 3.71875 L 28.078125 3.71875 C 30.28125 3.71875 32.066406 5.503906 32.066406 7.703125 L 32.066406 28.078125 C 32.066406 30.28125 30.28125 32.066406 28.078125 32.066406 L 7.703125 32.066406 C 5.503906 32.066406 3.71875 30.28125 3.71875 28.078125 Z M 3.71875 28.078125 "/>
<g clip-path="url(#clip5)" clip-rule="nonzero">
<g clip-path="url(#clip6)" clip-rule="nonzero">
<path style=" stroke:none;fill-rule:nonzero;fill:url(#pattern1);" d="M 14.492188 21.292969 L 21.296875 21.292969 L 21.296875 14.488281 L 14.492188 14.488281 Z M 14.492188 21.292969 "/>
</g>
</g>
<path style="fill:none;stroke-width:1.19553;stroke-linecap:butt;stroke-linejoin:miter;stroke:rgb(0%,50%,100%);stroke-opacity:1;stroke-miterlimit:10;" d="M -3.399813 -3.400969 L -0.001375 3.399812 L 3.400969 -3.400969 L -3.399813 -3.400969 " transform="matrix(1,0,0,-1,17.892,17.892)"/>
<path style=" stroke:none;fill-rule:nonzero;fill:rgb(100%,100%,100%);fill-opacity:1;" d="M 138.410156 162.773438 L 138.410156 142.398438 C 138.410156 140.195312 140.195312 138.410156 142.398438 138.410156 L 162.773438 138.410156 C 164.972656 138.410156 166.757812 140.195312 166.757812 142.398438 L 166.757812 162.773438 C 166.757812 164.972656 164.972656 166.757812 162.773438 166.757812 L 142.398438 166.757812 C 140.195312 166.757812 138.410156 164.972656 138.410156 162.773438 Z M 138.410156 162.773438 "/>
<g clip-path="url(#clip8)" clip-rule="nonzero">
<g clip-path="url(#clip9)" clip-rule="nonzero">
<path style=" stroke:none;fill-rule:nonzero;fill:url(#pattern2);" d="M 149.183594 155.988281 L 155.988281 155.988281 L 155.988281 149.183594 L 149.183594 149.183594 Z M 149.183594 155.988281 "/>
</g>
</g>
<g clip-path="url(#clip11)" clip-rule="nonzero">
<path style="fill:none;stroke-width:1.19553;stroke-linecap:butt;stroke-linejoin:miter;stroke:rgb(0%,50%,100%);stroke-opacity:1;stroke-miterlimit:10;" d="M -3.401406 -3.403281 L 0.0009375 3.401406 L 3.403281 -3.403281 L -3.401406 -3.403281 " transform="matrix(1,0,0,-1,152.585,152.585)"/>
</g>
</g>
</svg>
