<?xml version="1.0" encoding="UTF-8"?>
<svg xmlns="http://www.w3.org/2000/svg" xmlns:xlink="http://www.w3.org/1999/xlink" width="170.477pt" height="170.477pt" viewBox="0 0 170.477 170.477" version="1.1">
<defs>
<clipPath id="clip1">
  <path d="M 0 0 L 170.476562 0 L 170.476562 170.476562 L 0 170.476562 Z M 0 0 "/>
</clipPath>
</defs>
<g id="surface1">
<g clip-path="url(#clip1)" clip-rule="nonzero">
<path style=" stroke:none;fill-rule:nonzero;fill:rgb(100%,100%,100%);fill-opacity:1;" d="M 0.199219 166.292969 L 0.199219 4.183594 C 0.199219 1.980469 1.984375 0.199219 4.183594 0.199219 L 166.292969 0.199219 C 168.496094 0.199219 170.277344 1.980469 170.277344 4.183594 L 170.277344 166.292969 C 170.277344 168.492188 168.496094 170.277344 166.292969 170.277344 L 4.183594 170.277344 C 1.984375 170.277344 0.199219 168.492188 0.199219 166.292969 Z M 0.199219 166.292969 "/>
</g>
<path style="fill:none;stroke-width:1.59404;stroke-linecap:butt;stroke-linejoin:miter;stroke:rgb(9.999084%,75%,23.999023%);stroke-opacity:1;stroke-miterlimit:10;" d="M -17.008531 17.007531 L -17.008531 -17.008094 L 17.007094 -17.008094 L 17.007094 17.007531 Z M -17.008531 17.007531 " transform="matrix(1,0,0,-1,85.239,85.238)"/>
<path style=" stroke:none;fill-rule:nonzero;fill:rgb(100%,100%,100%);fill-opacity:1;" d="M 3.71875 28.078125 L 3.71875 7.703125 C 3.71875 5.503906 5.503906 3.71875 7.703125 3.71875 L 28.078125 3.71875 C 30.28125 3.71875 32.066406 5.503906 32.066406 7.703125 L 32.066406 28.078125 C 32.066406 30.28125 30.28125 32.066406 28.078125 32.066406 L 7.703125 32.066406 C 5.503906 32.066406 3.71875 30.28125 3.71875 28.078125 Z M 3.71875 28.078125 "/>
<path style="fill:none;stroke-width:1.19553;stroke-linecap:butt;stroke-linejoin:miter;stroke:rgb(9.999084%,75%,23.999023%);stroke-opacity:1;stroke-miterlimit:10;" d="M -2.833406 2.833406 L -2.833406 -2.834563 L 2.834562 -2.834563 L 2.834562 2.833406 Z M -2.833406 2.833406 " transform="matrix(1,0,0,-1,17.892,17.892)"/>
<path style=" stroke:none;fill-rule:nonzero;fill:rgb(100%,100%,100%);fill-opacity:1;" d="M 138.410156 162.773438 L 138.410156 142.398438 C 138.410156 140.195312 140.195312 138.410156 142.398438 138.410156 L 162.773438 138.410156 C 164.972656 138.410156 166.757812 140.195312 166.757812 142.398438 L 166.757812 162.773438 C 166.757812 164.972656 164.972656 166.757812 162.773438 166.757812 L 142.398438 166.757812 C 140.195312 166.757812 138.410156 164.972656 138.410156 162.773438 Z M 138.410156 162.773438 "/>
<path style="fill:none;stroke-width:1.19553;stroke-linecap:butt;stroke-linejoin:miter;stroke:rgb(9.999084%,75%,23.999023%);stroke-opacity:1;stroke-miterlimit:10;" d="M -2.835 2.835 L -2.835 -2.832969 L 2.832969 -2.832969 L 2.832969 2.835 Z M -2.835 2.835 " transform="matrix(1,0,0,-1,152.585,152.585)"/>
</g>
</svg>
